^E:\DAC4\VENDINGMACHINECLIENT\FORM1.RESX|E:\DAC4\VENDINGMACHINECLIENT\PROPERTIES\RESOURCES.RESX
E:\DAC4\VENDINGMACHINECLIENT\OBJ\X86\DEBUG\VENDINGMACHINECLIENT.FORM1.RESOURCES
E:\DAC4\VENDINGMACHINECLIENT\OBJ\X86\DEBUG\VENDINGMACHINECLIENT.PROPERTIES.RESOURCES.RESOURCES
