<?xml version="1.0" encoding="UTF-8"?>
<session version="1.0">
<refactoring comment="Copy 18 elements to &apos;lib&apos;&#x0D;&#x0A;- Original project: &apos;strutsProject&apos;&#x0D;&#x0A;- Destination element: &apos;lib&apos;&#x0D;&#x0A;- Original elements:&#x0D;&#x0A;     junit-3.8.1.jar&#x0D;&#x0A;     ojdbc6_g.jar&#x0D;&#x0A;     ojdbc6dms_g.jar&#x0D;&#x0A;     commons-io-1.3.2.jar&#x0D;&#x0A;     struts2-convention-plugin-2.1.6.jar&#x0D;&#x0A;     ojdbc5dms_g.jar&#x0D;&#x0A;     ojdbc6dms.jar&#x0D;&#x0A;     commons-fileupload-1.2.1.jar&#x0D;&#x0A;     ojdbc6.jar&#x0D;&#x0A;     ojdbc5.jar&#x0D;&#x0A;     xwork-2.1.2.jar&#x0D;&#x0A;     simplefan.jar&#x0D;&#x0A;     ognl-2.6.11.jar&#x0D;&#x0A;     struts2-core-2.1.6.jar&#x0D;&#x0A;     ojdbc5_g.jar&#x0D;&#x0A;     ojdbc5dms.jar&#x0D;&#x0A;     commons-logging-1.1.jar&#x0D;&#x0A;     freemarker-2.3.13.jar" description="Copy files" element1="WebContent/WEB-INF/lib/junit-3.8.1.jar" element10="WebContent/WEB-INF/lib/ojdbc5.jar" element11="WebContent/WEB-INF/lib/xwork-2.1.2.jar" element12="WebContent/WEB-INF/lib/simplefan.jar" element13="WebContent/WEB-INF/lib/ognl-2.6.11.jar" element14="WebContent/WEB-INF/lib/struts2-core-2.1.6.jar" element15="WebContent/WEB-INF/lib/ojdbc5_g.jar" element16="WebContent/WEB-INF/lib/ojdbc5dms.jar" element17="WebContent/WEB-INF/lib/commons-logging-1.1.jar" element18="WebContent/WEB-INF/lib/freemarker-2.3.13.jar" element2="WebContent/WEB-INF/lib/ojdbc6_g.jar" element3="WebContent/WEB-INF/lib/ojdbc6dms_g.jar" element4="WebContent/WEB-INF/lib/commons-io-1.3.2.jar" element5="WebContent/WEB-INF/lib/struts2-convention-plugin-2.1.6.jar" element6="WebContent/WEB-INF/lib/ojdbc5dms_g.jar" element7="WebContent/WEB-INF/lib/ojdbc6dms.jar" element8="WebContent/WEB-INF/lib/commons-fileupload-1.2.1.jar" element9="WebContent/WEB-INF/lib/ojdbc6.jar" files="18" flags="589830" folders="0" id="org.eclipse.jdt.ui.copy" policy="org.eclipse.jdt.ui.copyResources" stamp="1358786024952" target="/TilesProject/WebContent/WEB-INF/lib" units="0" version="1.0"/>
</session>