what,kind,bundleId,bundleVersion,description,time
started,bundle,org.eclipse.wst.server.ui,1.1.306.v20110823_1704,"org.eclipse.wst.server.ui",1358739724824
started,bundle,org.eclipse.wst.sse.core,1.1.601.v201108151912,"org.eclipse.wst.sse.core",1358739724824
started,bundle,org.eclipse.wst.sse.ui,1.3.1.v201108191312,"org.eclipse.wst.sse.ui",1358739724824
started,bundle,org.eclipse.wst.validation,1.2.302.v201107140600,"org.eclipse.wst.validation",1358739724824
started,bundle,org.eclipse.wst.web,1.1.500.v201104251400,"org.eclipse.wst.web",1358739724824
started,bundle,org.eclipse.wst.xml.core,1.1.601.v201108302147,"org.eclipse.wst.xml.core",1358739724840
started,bundle,org.eclipse.wst.xml.ui,1.1.201.v201108151912,"org.eclipse.wst.xml.ui",1358739724840
started,bundle,oracle.eclipse.tools.glassfish,4.2.1.201201241947,"oracle.eclipse.tools.glassfish",1358739724840
os,sysinfo,,,"win32",1358739724840
arch,sysinfo,,,"x86",1358739724840
ws,sysinfo,,,"win32",1358739724840
locale,sysinfo,,,"en_US",1358739724840
processors,sysinfo,,,"4",1358739724840
java.runtime.name,sysinfo,,,"Java(TM) SE Runtime Environment",1358739724840
java.runtime.version,sysinfo,,,"1.6.0_37-b06",1358739724840
java.specification.name,sysinfo,,,"Java Platform API Specification",1358739724840
java.specification.vendor,sysinfo,,,"Sun Microsystems Inc.",1358739724840
java.specification.version,sysinfo,,,"1.6",1358739724840
java.vendor,sysinfo,,,"Sun Microsystems Inc.",1358739724840
java.version,sysinfo,,,"1.6.0_37",1358739724840
java.vm.info,sysinfo,,,"mixed mode, sharing",1358739724840
java.vm.name,sysinfo,,,"Java HotSpot(TM) Client VM",1358739724840
java.vm.specification.name,sysinfo,,,"Java Virtual Machine Specification",1358739724840
java.vm.specification.vendor,sysinfo,,,"Sun Microsystems Inc.",1358739724840
java.vm.specification.version,sysinfo,,,"1.0",1358739724840
java.vm.vendor,sysinfo,,,"Sun Microsystems Inc.",1358739724840
java.vm.version,sysinfo,,,"20.12-b01",1358739724840
started,bundle,org.eclipse.jdt.apt.core,3.3.500.v20110420-1015,"org.eclipse.jdt.apt.core",1358739725744
started,bundle,org.eclipse.jdt.apt.pluggable.core,1.0.400.v20110305-1450,"org.eclipse.jdt.apt.pluggable.core",1358739725744
started,bundle,org.eclipse.wst.dtd.core,1.1.501.v201107252021,"org.eclipse.wst.dtd.core",1358739725838
started,bundle,org.eclipse.jst.jsf.common,1.2.3.v201104061039,"org.eclipse.jst.jsf.common",1358739725854
started,bundle,org.eclipse.jst.jsf.core,1.3.105.v201108261005,"org.eclipse.jst.jsf.core",1358739725854
started,bundle,org.eclipse.wst.wsdl.validation,1.1.502.v201104071820,"org.eclipse.wst.wsdl.validation",1358739725885
started,bundle,org.eclipse.wst.xsd.core,1.1.600.v201104070312,"org.eclipse.wst.xsd.core",1358739725900
started,bundle,org.eclipse.wst.xsl.core,1.1.100.v201102270516,"org.eclipse.wst.xsl.core",1358739725900
activated,view,org.eclipse.ui.navigator.resources,3.4.300.I20110421-1800,"org.eclipse.ui.navigator.ProjectExplorer",1358739727289
started,bundle,org.eclipse.jst.ws.jaxws.dom.integration,1.0.100.v201101252155,"org.eclipse.jst.ws.jaxws.dom.integration",1358739727304
started,bundle,org.eclipse.jst.ws.jaxws.dom.ui,1.0.0.v201004171919,"org.eclipse.jst.ws.jaxws.dom.ui",1358739727320
started,bundle,org.eclipse.jst.j2ee.ejb,1.1.503.v201108102200,"org.eclipse.jst.j2ee.ejb",1358739727382
started,bundle,org.eclipse.jst.j2ee.jca,1.1.500.v201108102200,"org.eclipse.jst.j2ee.jca",1358739727398
started,bundle,org.eclipse.jst.jee.ejb,1.0.301.v201007070821,"org.eclipse.jst.jee.ejb",1358739727414
started,bundle,org.eclipse.jst.jee.web,1.0.301.v201007070907,"org.eclipse.jst.jee.web",1358739727414
started,bundle,org.eclipse.xsd,2.7.0.v20110606-0949,"org.eclipse.xsd",1358739727538
started,bundle,org.eclipse.jst.servlet.ui,1.1.501.v201108220630,"org.eclipse.jst.servlet.ui",1358739727757
opened,editor,org.eclipse.jst.jsp.ui,1.1.601.v201108151912,"org.eclipse.jst.jsp.core.jspsource.source",1358739736446
activated,editor,org.eclipse.jst.jsp.ui,1.1.601.v201108151912,"org.eclipse.jst.jsp.core.jspsource.source",1358739736540
started,bundle,org.eclipse.jpt.jpa.ui,3.0.1.v201108080010,"org.eclipse.jpt.jpa.ui",1358739751328
executed,command,org.eclipse.ui,3.7.0.I20110602-0100,"org.eclipse.ui.edit.text.contentAssist.proposals",1358739761000
executed,command,org.eclipse.ui,3.7.0.I20110602-0100,"org.eclipse.ui.file.save",1358739776054
deactivated,workbench,org.eclipse.ui.workbench,3.7.0.I20110519-0100,"",1358739777256
activated,workbench,org.eclipse.ui.workbench,3.7.0.I20110519-0100,"",1358739778613
deactivated,workbench,org.eclipse.ui.workbench,3.7.0.I20110519-0100,"",1358739782684
started,bundle,org.eclipse.jst.server.generic.core,1.0.700.v20101219,"org.eclipse.jst.server.generic.core",1358739783917
started,bundle,org.eclipse.jst.server.preview.adapter,1.1.100.v20100308,"org.eclipse.jst.server.preview.adapter",1358739783917
activated,workbench,org.eclipse.ui.workbench,3.7.0.I20110519-0100,"",1358739785945
executed,command,org.eclipse.debug.ui,3.7.101.v20110817_r371,"org.eclipse.debug.ui.commands.DebugLast",1358739786085
started,bundle,org.eclipse.jst.server.tomcat.ui,1.1.200.v20100418,"org.eclipse.jst.server.tomcat.ui",1358739786163
opened,view,org.eclipse.wst.server.ui,1.1.306.v20110823_1704,"org.eclipse.wst.server.ui.ServersView",1358739786241
started,bundle,org.eclipse.jdt.debug,3.7.1.v20110802_r371,"org.eclipse.jdt.debug",1358739786538
started,bundle,org.eclipse.jdt.debug.ui,3.6.1.v20110803_r371,"org.eclipse.jdt.debug.ui",1358739787489
started,bundle,org.eclipse.ui.browser,3.3.100.v20110426,"org.eclipse.ui.browser",1358739792593
opened,editor,org.eclipse.ui.browser,3.3.100.v20110426,"org.eclipse.ui.browser.editor",1358739793077
activated,editor,org.eclipse.ui.browser,3.3.100.v20110426,"org.eclipse.ui.browser.editor",1358739793155
activated,editor,org.eclipse.jst.jsp.ui,1.1.601.v201108151912,"org.eclipse.jst.jsp.core.jspsource.source",1358739799495
executed,command,org.eclipse.ui,3.7.0.I20110602-0100,"org.eclipse.ui.file.save",1358739803239
activated,editor,org.eclipse.ui.browser,3.3.100.v20110426,"org.eclipse.ui.browser.editor",1358739805142
executed,command,org.eclipse.ui,3.7.0.I20110602-0100,"org.eclipse.ui.edit.copy",1358739825049
deactivated,workbench,org.eclipse.ui.workbench,3.7.0.I20110519-0100,"",1358739825782
activated,workbench,org.eclipse.ui.workbench,3.7.0.I20110519-0100,"",1358739826952
deactivated,workbench,org.eclipse.ui.workbench,3.7.0.I20110519-0100,"",1358739827592
activated,workbench,org.eclipse.ui.workbench,3.7.0.I20110519-0100,"",1358739831492
activated,editor,org.eclipse.jst.jsp.ui,1.1.601.v201108151912,"org.eclipse.jst.jsp.core.jspsource.source",1358739864457
executed,command,org.eclipse.ui,3.7.0.I20110602-0100,"org.eclipse.ui.file.save",1358739871274
executed,command,org.eclipse.ui,3.7.0.I20110602-0100,"org.eclipse.ui.file.save",1358739876235
deactivated,workbench,org.eclipse.ui.workbench,3.7.0.I20110519-0100,"",1358739876843
activated,workbench,org.eclipse.ui.workbench,3.7.0.I20110519-0100,"",1358739883523
executed,command,org.eclipse.ui,3.7.0.I20110602-0100,"org.eclipse.ui.file.save",1358739887657
executed,command,org.eclipse.ui,3.7.0.I20110602-0100,"org.eclipse.ui.file.save",1358739900964
deactivated,workbench,org.eclipse.ui.workbench,3.7.0.I20110519-0100,"",1358739901479
activated,workbench,org.eclipse.ui.workbench,3.7.0.I20110519-0100,"",1358739906790
executed,command,org.eclipse.ui,3.7.0.I20110602-0100,"org.eclipse.ui.edit.delete",1358739914948
executed,command,org.eclipse.ui,3.7.0.I20110602-0100,"org.eclipse.ui.file.save",1358739916212
executed,command,org.eclipse.ui.workbench.texteditor,3.7.0.v20110505-0800,"org.eclipse.ui.edit.text.goto.lineEnd",1358739924386
started,bundle,org.eclipse.jst.jsf.facelet.ui,1.0.1.v201104032306,"org.eclipse.jst.jsf.facelet.ui",1358739926414
started,bundle,org.eclipse.jst.jsf.ui,1.3.2.v201104251204,"org.eclipse.jst.jsf.ui",1358739926446
started,bundle,org.eclipse.jst.jsf.facelet.core,1.0.100.v201104191527,"org.eclipse.jst.jsf.facelet.core",1358739926477
executed,command,org.eclipse.ui.workbench.texteditor,3.7.0.v20110505-0800,"org.eclipse.ui.edit.text.goto.lineEnd",1358739956756
executed,command,org.eclipse.ui,3.7.0.I20110602-0100,"org.eclipse.ui.edit.delete",1358739963589
executed,command,org.eclipse.ui.workbench.texteditor,3.7.0.v20110505-0800,"org.eclipse.ui.edit.text.goto.lineStart",1358739964728
executed,command,org.eclipse.ui.workbench.texteditor,3.7.0.v20110505-0800,"org.eclipse.ui.edit.text.goto.lineStart",1358739967302
executed,command,org.eclipse.ui.workbench.texteditor,3.7.0.v20110505-0800,"org.eclipse.ui.edit.text.goto.lineEnd",1358739970079
executed,command,org.eclipse.ui,3.7.0.I20110602-0100,"org.eclipse.ui.file.save",1358739992637
deactivated,workbench,org.eclipse.ui.workbench,3.7.0.I20110519-0100,"",1358739993604
activated,workbench,org.eclipse.ui.workbench,3.7.0.I20110519-0100,"",1358740003230
executed,command,org.eclipse.ui,3.7.0.I20110602-0100,"org.eclipse.ui.edit.cut",1358740013510
executed,command,org.eclipse.ui,3.7.0.I20110602-0100,"org.eclipse.ui.edit.paste",1358740015804
executed,command,org.eclipse.ui,3.7.0.I20110602-0100,"org.eclipse.ui.file.save",1358740016989
executed,command,org.eclipse.ui,3.7.0.I20110602-0100,"org.eclipse.ui.edit.cut",1358740024571
executed,command,org.eclipse.ui,3.7.0.I20110602-0100,"org.eclipse.ui.edit.paste",1358740026739
executed,command,org.eclipse.ui,3.7.0.I20110602-0100,"org.eclipse.ui.edit.delete",1358740034430
executed,command,org.eclipse.ui,3.7.0.I20110602-0100,"org.eclipse.ui.edit.delete",1358740035662
executed,command,org.eclipse.ui,3.7.0.I20110602-0100,"org.eclipse.ui.file.save",1358740036708
executed,command,org.eclipse.ui,3.7.0.I20110602-0100,"org.eclipse.ui.file.save",1358740054273
executed,command,org.eclipse.ui.workbench.texteditor,3.7.0.v20110505-0800,"org.eclipse.ui.edit.text.toggleOverwrite",1358740059811
executed,command,org.eclipse.ui.workbench.texteditor,3.7.0.v20110505-0800,"org.eclipse.ui.edit.text.toggleOverwrite",1358740060295
executed,command,org.eclipse.ui,3.7.0.I20110602-0100,"org.eclipse.ui.edit.cut",1358740067861
executed,command,org.eclipse.ui,3.7.0.I20110602-0100,"org.eclipse.ui.edit.paste",1358740070076
executed,command,org.eclipse.ui,3.7.0.I20110602-0100,"org.eclipse.ui.file.save",1358740071355
deactivated,workbench,org.eclipse.ui.workbench,3.7.0.I20110519-0100,"",1358740072697
activated,workbench,org.eclipse.ui.workbench,3.7.0.I20110519-0100,"",1358740082120
executed,command,org.eclipse.ui,3.7.0.I20110602-0100,"org.eclipse.ui.file.save",1358740088298
deactivated,workbench,org.eclipse.ui.workbench,3.7.0.I20110519-0100,"",1358740088937
activated,workbench,org.eclipse.ui.workbench,3.7.0.I20110519-0100,"",1358740091497
executed,command,org.eclipse.ui,3.7.0.I20110602-0100,"org.eclipse.ui.file.save",1358740093634
executed,command,org.eclipse.ui,3.7.0.I20110602-0100,"org.eclipse.ui.file.save",1358740143913
executed,command,org.eclipse.ui.workbench.texteditor,3.7.0.v20110505-0800,"org.eclipse.ui.edit.text.select.lineEnd",1358740214566
executed,command,org.eclipse.ui,3.7.0.I20110602-0100,"org.eclipse.ui.edit.delete",1358740215002
executed,command,org.eclipse.ui,3.7.0.I20110602-0100,"org.eclipse.ui.edit.text.contentAssist.proposals",1358740225564
executed,command,org.eclipse.ui,3.7.0.I20110602-0100,"org.eclipse.ui.edit.text.contentAssist.proposals",1358740237513
executed,command,org.eclipse.ui,3.7.0.I20110602-0100,"org.eclipse.ui.file.save",1358740267902
deactivated,workbench,org.eclipse.ui.workbench,3.7.0.I20110519-0100,"",1358740269400
activated,workbench,org.eclipse.ui.workbench,3.7.0.I20110519-0100,"",1358740276062
executed,command,org.eclipse.ui,3.7.0.I20110602-0100,"org.eclipse.ui.file.save",1358740288245
executed,command,org.eclipse.ui,3.7.0.I20110602-0100,"org.eclipse.ui.edit.delete",1358740290710
executed,command,org.eclipse.ui,3.7.0.I20110602-0100,"org.eclipse.ui.file.save",1358740291615
deactivated,workbench,org.eclipse.ui.workbench,3.7.0.I20110519-0100,"",1358740292270
activated,workbench,org.eclipse.ui.workbench,3.7.0.I20110519-0100,"",1358740779959
deactivated,workbench,org.eclipse.ui.workbench,3.7.0.I20110519-0100,"",1358740834443
deactivated,workbench,org.eclipse.ui.workbench,3.7.0.I20110519-0100,"",1358740861962
activated,workbench,org.eclipse.ui.workbench,3.7.0.I20110519-0100,"",1358741136753
executed,command,org.eclipse.ui,3.7.0.I20110602-0100,"org.eclipse.ui.edit.text.contentAssist.proposals",1358741148173
executed,command,org.eclipse.ui,3.7.0.I20110602-0100,"org.eclipse.ui.file.save",1358741160193
deactivated,workbench,org.eclipse.ui.workbench,3.7.0.I20110519-0100,"",1358741161223
activated,workbench,org.eclipse.ui.workbench,3.7.0.I20110519-0100,"",1358741167633
activated,editor,org.eclipse.ui.browser,3.3.100.v20110426,"org.eclipse.ui.browser.editor",1358741170863
executed,command,org.eclipse.ui,3.7.0.I20110602-0100,"org.eclipse.ui.edit.copy",1358741173683
deactivated,workbench,org.eclipse.ui.workbench,3.7.0.I20110519-0100,"",1358741174293
activated,workbench,org.eclipse.ui.workbench,3.7.0.I20110519-0100,"",1358741197244
activated,editor,org.eclipse.jst.jsp.ui,1.1.601.v201108151912,"org.eclipse.jst.jsp.core.jspsource.source",1358741200194
deactivated,workbench,org.eclipse.ui.workbench,3.7.0.I20110519-0100,"",1358741204904
activated,workbench,org.eclipse.ui.workbench,3.7.0.I20110519-0100,"",1358741207964
deactivated,workbench,org.eclipse.ui.workbench,3.7.0.I20110519-0100,"",1358741211494
activated,workbench,org.eclipse.ui.workbench,3.7.0.I20110519-0100,"",1358741218114
executed,command,org.eclipse.ui,3.7.0.I20110602-0100,"org.eclipse.ui.file.save",1358741221864
deactivated,workbench,org.eclipse.ui.workbench,3.7.0.I20110519-0100,"",1358741222534
activated,workbench,org.eclipse.ui.workbench,3.7.0.I20110519-0100,"",1358741241946
executed,command,org.eclipse.ui,3.7.0.I20110602-0100,"org.eclipse.ui.edit.paste",1358741245346
executed,command,org.eclipse.ui,3.7.0.I20110602-0100,"org.eclipse.ui.edit.delete",1358741281082
executed,command,org.eclipse.ui,3.7.0.I20110602-0100,"org.eclipse.ui.edit.text.contentAssist.proposals",1358741296752
executed,command,org.eclipse.ui,3.7.0.I20110602-0100,"org.eclipse.ui.edit.delete",1358741332672
executed,command,org.eclipse.ui,3.7.0.I20110602-0100,"org.eclipse.ui.file.save",1358741335022
deactivated,workbench,org.eclipse.ui.workbench,3.7.0.I20110519-0100,"",1358741335662
activated,workbench,org.eclipse.ui.workbench,3.7.0.I20110519-0100,"",1358741344152
deactivated,workbench,org.eclipse.ui.workbench,3.7.0.I20110519-0100,"",1358741352792
activated,workbench,org.eclipse.ui.workbench,3.7.0.I20110519-0100,"",1358741371963
deactivated,workbench,org.eclipse.ui.workbench,3.7.0.I20110519-0100,"",1358741386133
activated,workbench,org.eclipse.ui.workbench,3.7.0.I20110519-0100,"",1358741395833
deactivated,workbench,org.eclipse.ui.workbench,3.7.0.I20110519-0100,"",1358741410543
activated,workbench,org.eclipse.ui.workbench,3.7.0.I20110519-0100,"",1358741436553
deactivated,workbench,org.eclipse.ui.workbench,3.7.0.I20110519-0100,"",1358741438933
activated,workbench,org.eclipse.ui.workbench,3.7.0.I20110519-0100,"",1358741446083
executed,command,org.eclipse.ui,3.7.0.I20110602-0100,"org.eclipse.ui.file.save",1358741468733
deactivated,workbench,org.eclipse.ui.workbench,3.7.0.I20110519-0100,"",1358741469643
activated,workbench,org.eclipse.ui.workbench,3.7.0.I20110519-0100,"",1358741501084
executed,command,org.eclipse.ui,3.7.0.I20110602-0100,"org.eclipse.ui.edit.text.contentAssist.proposals",1358741508474
executed,command,org.eclipse.ui,3.7.0.I20110602-0100,"org.eclipse.ui.file.save",1358741517744
deactivated,workbench,org.eclipse.ui.workbench,3.7.0.I20110519-0100,"",1358741518414
activated,workbench,org.eclipse.ui.workbench,3.7.0.I20110519-0100,"",1358741536865
activated,view,org.eclipse.ui.navigator.resources,3.4.300.I20110421-1800,"org.eclipse.ui.navigator.ProjectExplorer",1358741543155
opened,editor,org.eclipse.jst.jsp.ui,1.1.601.v201108151912,"org.eclipse.jst.jsp.core.jspsource.source",1358741543535
activated,editor,org.eclipse.jst.jsp.ui,1.1.601.v201108151912,"org.eclipse.jst.jsp.core.jspsource.source",1358741543615
activated,editor,org.eclipse.jst.jsp.ui,1.1.601.v201108151912,"org.eclipse.jst.jsp.core.jspsource.source",1358741567257
closed,editor,org.eclipse.jst.jsp.ui,1.1.601.v201108151912,"org.eclipse.jst.jsp.core.jspsource.source",1358741570617
deactivated,workbench,org.eclipse.ui.workbench,3.7.0.I20110519-0100,"",1358741623177
activated,workbench,org.eclipse.ui.workbench,3.7.0.I20110519-0100,"",1358741628307
activated,view,org.eclipse.ui.console,3.5.100.v20110511,"org.eclipse.ui.console.ConsoleView",1358741631997
activated,view,org.eclipse.wst.server.ui,1.1.306.v20110823_1704,"org.eclipse.wst.server.ui.ServersView",1358741632227
activated,editor,org.eclipse.jst.jsp.ui,1.1.601.v201108151912,"org.eclipse.jst.jsp.core.jspsource.source",1358741633487
activated,view,org.eclipse.wst.server.ui,1.1.306.v20110823_1704,"org.eclipse.wst.server.ui.ServersView",1358741636227
executed,command,org.eclipse.wst.server.ui,1.1.306.v20110823_1704,"org.eclipse.wst.server.run",1358741639427
activated,view,org.eclipse.ui.console,3.5.100.v20110511,"org.eclipse.ui.console.ConsoleView",1358741640984
activated,view,org.eclipse.wst.server.ui,1.1.306.v20110823_1704,"org.eclipse.wst.server.ui.ServersView",1358741642905
deactivated,workbench,org.eclipse.ui.workbench,3.7.0.I20110519-0100,"",1358741644865
activated,workbench,org.eclipse.ui.workbench,3.7.0.I20110519-0100,"",1358741657146
activated,view,org.eclipse.ui.console,3.5.100.v20110511,"org.eclipse.ui.console.ConsoleView",1358741657156
deactivated,workbench,org.eclipse.ui.workbench,3.7.0.I20110519-0100,"",1358741660406
activated,workbench,org.eclipse.ui.workbench,3.7.0.I20110519-0100,"",1358741665916
activated,editor,org.eclipse.jst.jsp.ui,1.1.601.v201108151912,"org.eclipse.jst.jsp.core.jspsource.source",1358741673476
executed,command,org.eclipse.ui,3.7.0.I20110602-0100,"org.eclipse.ui.file.save",1358741692246
activated,editor,org.eclipse.jst.jsp.ui,1.1.601.v201108151912,"org.eclipse.jst.jsp.core.jspsource.source",1358741699716
executed,command,org.eclipse.ui,3.7.0.I20110602-0100,"org.eclipse.ui.edit.delete",1358741709486
executed,command,org.eclipse.ui,3.7.0.I20110602-0100,"org.eclipse.ui.file.save",1358741712926
deactivated,workbench,org.eclipse.ui.workbench,3.7.0.I20110519-0100,"",1358741713536
activated,workbench,org.eclipse.ui.workbench,3.7.0.I20110519-0100,"",1358741719007
activated,editor,org.eclipse.jst.jsp.ui,1.1.601.v201108151912,"org.eclipse.jst.jsp.core.jspsource.source",1358741725337
executed,command,org.eclipse.ui,3.7.0.I20110602-0100,"org.eclipse.ui.file.save",1358741752307
executed,command,org.eclipse.ui.workbench.texteditor,3.7.0.v20110505-0800,"org.eclipse.ui.edit.text.goto.lineEnd",1358741753847
executed,command,org.eclipse.ui,3.7.0.I20110602-0100,"org.eclipse.ui.file.save",1358741756607
executed,command,org.eclipse.ui,3.7.0.I20110602-0100,"org.eclipse.ui.file.save",1358741759627
executed,command,org.eclipse.ui,3.7.0.I20110602-0100,"org.eclipse.ui.file.save",1358741762667
deactivated,workbench,org.eclipse.ui.workbench,3.7.0.I20110519-0100,"",1358741764657
activated,workbench,org.eclipse.ui.workbench,3.7.0.I20110519-0100,"",1358741782081
executed,command,org.eclipse.ui,3.7.0.I20110602-0100,"org.eclipse.ui.edit.delete",1358741814101
executed,command,org.eclipse.ui,3.7.0.I20110602-0100,"org.eclipse.ui.edit.delete",1358741817851
executed,command,org.eclipse.ui,3.7.0.I20110602-0100,"org.eclipse.ui.file.save",1358741819811
deactivated,workbench,org.eclipse.ui.workbench,3.7.0.I20110519-0100,"",1358741822391
activated,workbench,org.eclipse.ui.workbench,3.7.0.I20110519-0100,"",1358741847833
executed,command,org.eclipse.ui.workbench.texteditor,3.7.0.v20110505-0800,"org.eclipse.ui.edit.text.goto.lineEnd",1358741855893
executed,command,org.eclipse.ui,3.7.0.I20110602-0100,"org.eclipse.ui.file.save",1358741862183
executed,command,org.eclipse.ui,3.7.0.I20110602-0100,"org.eclipse.ui.file.save",1358741871013
executed,command,org.eclipse.ui,3.7.0.I20110602-0100,"org.eclipse.ui.edit.delete",1358741883793
executed,command,org.eclipse.ui.workbench.texteditor,3.7.0.v20110505-0800,"org.eclipse.ui.edit.text.select.lineEnd",1358741886583
executed,command,org.eclipse.ui,3.7.0.I20110602-0100,"org.eclipse.ui.edit.cut",1358741887643
executed,command,org.eclipse.ui,3.7.0.I20110602-0100,"org.eclipse.ui.edit.paste",1358741889723
executed,command,org.eclipse.ui,3.7.0.I20110602-0100,"org.eclipse.ui.file.save",1358741890703
deactivated,workbench,org.eclipse.ui.workbench,3.7.0.I20110519-0100,"",1358741892713
activated,workbench,org.eclipse.ui.workbench,3.7.0.I20110519-0100,"",1358741908912
deactivated,workbench,org.eclipse.ui.workbench,3.7.0.I20110519-0100,"",1358742014982
activated,workbench,org.eclipse.ui.workbench,3.7.0.I20110519-0100,"",1358742025162
executed,command,org.eclipse.ui,3.7.0.I20110602-0100,"org.eclipse.ui.edit.delete",1358742033702
executed,command,org.eclipse.ui,3.7.0.I20110602-0100,"org.eclipse.ui.file.save",1358742040443
deactivated,workbench,org.eclipse.ui.workbench,3.7.0.I20110519-0100,"",1358742041363
activated,workbench,org.eclipse.ui.workbench,3.7.0.I20110519-0100,"",1358742060338
executed,command,org.eclipse.ui,3.7.0.I20110602-0100,"org.eclipse.ui.edit.delete",1358742067078
executed,command,org.eclipse.ui,3.7.0.I20110602-0100,"org.eclipse.ui.file.save",1358742069128
executed,command,org.eclipse.ui,3.7.0.I20110602-0100,"org.eclipse.ui.file.save",1358742074308
deactivated,workbench,org.eclipse.ui.workbench,3.7.0.I20110519-0100,"",1358742075608
activated,workbench,org.eclipse.ui.workbench,3.7.0.I20110519-0100,"",1358742088755
executed,command,org.eclipse.ui.workbench.texteditor,3.7.0.v20110505-0800,"org.eclipse.ui.edit.text.select.lineEnd",1358742091825
executed,command,org.eclipse.ui,3.7.0.I20110602-0100,"org.eclipse.ui.file.save",1358742094585
deactivated,workbench,org.eclipse.ui.workbench,3.7.0.I20110519-0100,"",1358742095445
activated,workbench,org.eclipse.ui.workbench,3.7.0.I20110519-0100,"",1358742107497
executed,command,org.eclipse.ui.workbench.texteditor,3.7.0.v20110505-0800,"org.eclipse.ui.edit.text.goto.lineEnd",1358742117167
executed,command,org.eclipse.ui,3.7.0.I20110602-0100,"org.eclipse.ui.file.save",1358742121737
deactivated,workbench,org.eclipse.ui.workbench,3.7.0.I20110519-0100,"",1358742122397
activated,workbench,org.eclipse.ui.workbench,3.7.0.I20110519-0100,"",1358742128652
executed,command,org.eclipse.ui,3.7.0.I20110602-0100,"org.eclipse.ui.edit.cut",1358742142402
executed,command,org.eclipse.ui,3.7.0.I20110602-0100,"org.eclipse.ui.edit.paste",1358742145092
executed,command,org.eclipse.ui,3.7.0.I20110602-0100,"org.eclipse.ui.file.save",1358742153762
executed,command,org.eclipse.ui.workbench.texteditor,3.7.0.v20110505-0800,"org.eclipse.ui.edit.text.goto.lineEnd",1358742154922
executed,command,org.eclipse.ui,3.7.0.I20110602-0100,"org.eclipse.ui.file.save",1358742204632
executed,command,org.eclipse.ui,3.7.0.I20110602-0100,"org.eclipse.ui.file.save",1358742207622
executed,command,org.eclipse.ui,3.7.0.I20110602-0100,"org.eclipse.ui.file.save",1358742221132
executed,command,org.eclipse.ui,3.7.0.I20110602-0100,"org.eclipse.ui.file.save",1358742230642
deactivated,workbench,org.eclipse.ui.workbench,3.7.0.I20110519-0100,"",1358742232322
activated,workbench,org.eclipse.ui.workbench,3.7.0.I20110519-0100,"",1358742240072
deactivated,workbench,org.eclipse.ui.workbench,3.7.0.I20110519-0100,"",1358742242252
activated,workbench,org.eclipse.ui.workbench,3.7.0.I20110519-0100,"",1358742243572
executed,command,org.eclipse.ui,3.7.0.I20110602-0100,"org.eclipse.ui.edit.text.contentAssist.proposals",1358742250542
executed,command,org.eclipse.ui,3.7.0.I20110602-0100,"org.eclipse.ui.edit.text.contentAssist.proposals",1358742253262
executed,command,org.eclipse.ui,3.7.0.I20110602-0100,"org.eclipse.ui.file.save",1358742261602
deactivated,workbench,org.eclipse.ui.workbench,3.7.0.I20110519-0100,"",1358742265512
activated,workbench,org.eclipse.ui.workbench,3.7.0.I20110519-0100,"",1358742282073
deactivated,workbench,org.eclipse.ui.workbench,3.7.0.I20110519-0100,"",1358742284823
activated,workbench,org.eclipse.ui.workbench,3.7.0.I20110519-0100,"",1358742307763
activated,view,org.eclipse.ui.console,3.5.100.v20110511,"org.eclipse.ui.console.ConsoleView",1358742312493
activated,view,org.eclipse.wst.server.ui,1.1.306.v20110823_1704,"org.eclipse.wst.server.ui.ServersView",1358742312714
deactivated,workbench,org.eclipse.ui.workbench,3.7.0.I20110519-0100,"",1358742314044
activated,workbench,org.eclipse.ui.workbench,3.7.0.I20110519-0100,"",1358742319444
executed,command,org.eclipse.wst.server.ui,1.1.306.v20110823_1704,"org.eclipse.wst.server.run",1358742323424
activated,view,org.eclipse.ui.console,3.5.100.v20110511,"org.eclipse.ui.console.ConsoleView",1358742324775
activated,view,org.eclipse.wst.server.ui,1.1.306.v20110823_1704,"org.eclipse.wst.server.ui.ServersView",1358742326586
deactivated,workbench,org.eclipse.ui.workbench,3.7.0.I20110519-0100,"",1358742328486
activated,workbench,org.eclipse.ui.workbench,3.7.0.I20110519-0100,"",1358742347947
activated,view,org.eclipse.ui.console,3.5.100.v20110511,"org.eclipse.ui.console.ConsoleView",1358742347957
activated,view,org.eclipse.wst.server.ui,1.1.306.v20110823_1704,"org.eclipse.wst.server.ui.ServersView",1358742359608
activated,editor,org.eclipse.jst.jsp.ui,1.1.601.v201108151912,"org.eclipse.jst.jsp.core.jspsource.source",1358742376138
closed,editor,org.eclipse.ui.browser,3.3.100.v20110426,"org.eclipse.ui.browser.editor",1358742385888
closed,editor,org.eclipse.jst.jsp.ui,1.1.601.v201108151912,"org.eclipse.jst.jsp.core.jspsource.source",1358742387708
deactivated,workbench,org.eclipse.ui.workbench,3.7.0.I20110519-0100,"",1358742389348
activated,workbench,org.eclipse.ui.workbench,3.7.0.I20110519-0100,"",1358742390708
closed,workbench,org.eclipse.ui.workbench,3.7.0.I20110519-0100,"",1358742390928
started,bundle,org.eclipse.compare,3.5.201.R37x_v20110817-0800,"org.eclipse.compare",1358742392348
stopped,bundle,org.eclipse.jst.ws.axis.creation.ui,1.0.700.v201104070312,"org.eclipse.jst.ws.axis.creation.ui",1358742392658
stopped,bundle,org.eclipse.jst.ws.axis.consumption.ui,1.0.505.v201004211805,"org.eclipse.jst.ws.axis.consumption.ui",1358742392658
