what,kind,bundleId,bundleVersion,description,time
deactivated,workbench,org.eclipse.ui.workbench,3.7.0.I20110519-0100,"",1359936614993
activated,workbench,org.eclipse.ui.workbench,3.7.0.I20110519-0100,"",1359936622564
deactivated,workbench,org.eclipse.ui.workbench,3.7.0.I20110519-0100,"",1359936626756
activated,workbench,org.eclipse.ui.workbench,3.7.0.I20110519-0100,"",1359936674255
deactivated,workbench,org.eclipse.ui.workbench,3.7.0.I20110519-0100,"",1359936675966
activated,workbench,org.eclipse.ui.workbench,3.7.0.I20110519-0100,"",1359936678690
deactivated,workbench,org.eclipse.ui.workbench,3.7.0.I20110519-0100,"",1359936680866
activated,workbench,org.eclipse.ui.workbench,3.7.0.I20110519-0100,"",1359936836824
executed,command,org.eclipse.ui,3.7.0.I20110602-0100,"org.eclipse.ui.edit.copy",1359936851632
deactivated,workbench,org.eclipse.ui.workbench,3.7.0.I20110519-0100,"",1359936852123
activated,workbench,org.eclipse.ui.workbench,3.7.0.I20110519-0100,"",1359936872295
deactivated,workbench,org.eclipse.ui.workbench,3.7.0.I20110519-0100,"",1359936873011
activated,workbench,org.eclipse.ui.workbench,3.7.0.I20110519-0100,"",1359937123783
deactivated,workbench,org.eclipse.ui.workbench,3.7.0.I20110519-0100,"",1359937124829
activated,workbench,org.eclipse.ui.workbench,3.7.0.I20110519-0100,"",1359937162913
deactivated,workbench,org.eclipse.ui.workbench,3.7.0.I20110519-0100,"",1359937170024
activated,workbench,org.eclipse.ui.workbench,3.7.0.I20110519-0100,"",1359939146685
deactivated,workbench,org.eclipse.ui.workbench,3.7.0.I20110519-0100,"",1359939147418
activated,workbench,org.eclipse.ui.workbench,3.7.0.I20110519-0100,"",1359939168206
activated,editor,org.eclipse.jst.jsp.ui,1.1.601.v201108151912,"org.eclipse.jst.jsp.core.jspsource.source",1359939171097
deactivated,workbench,org.eclipse.ui.workbench,3.7.0.I20110519-0100,"",1359939175640
activated,workbench,org.eclipse.ui.workbench,3.7.0.I20110519-0100,"",1359939198999
deactivated,workbench,org.eclipse.ui.workbench,3.7.0.I20110519-0100,"",1359939199935
activated,workbench,org.eclipse.ui.workbench,3.7.0.I20110519-0100,"",1359939220564
deactivated,workbench,org.eclipse.ui.workbench,3.7.0.I20110519-0100,"",1359939223002
activated,workbench,org.eclipse.ui.workbench,3.7.0.I20110519-0100,"",1359941681422
deactivated,workbench,org.eclipse.ui.workbench,3.7.0.I20110519-0100,"",1359941682017
activated,workbench,org.eclipse.ui.workbench,3.7.0.I20110519-0100,"",1359942885265
activated,editor,org.eclipse.jst.jsp.ui,1.1.601.v201108151912,"org.eclipse.jst.jsp.core.jspsource.source",1359942890448
activated,editor,org.eclipse.jst.jsp.ui,1.1.601.v201108151912,"org.eclipse.jst.jsp.core.jspsource.source",1359942891446
executed,command,org.eclipse.ui.workbench.texteditor,3.7.0.v20110505-0800,"org.eclipse.ui.edit.text.select.lineEnd",1359942901209
executed,command,org.eclipse.ui,3.7.0.I20110602-0100,"org.eclipse.ui.edit.copy",1359942902603
deactivated,workbench,org.eclipse.ui.workbench,3.7.0.I20110519-0100,"",1359942903432
activated,workbench,org.eclipse.ui.workbench,3.7.0.I20110519-0100,"",1359942922349
executed,command,org.eclipse.ui.workbench.texteditor,3.7.0.v20110505-0800,"org.eclipse.ui.edit.text.toggleOverwrite",1359942933231
executed,command,org.eclipse.ui,3.7.0.I20110602-0100,"org.eclipse.ui.edit.copy",1359942934278
deactivated,workbench,org.eclipse.ui.workbench,3.7.0.I20110519-0100,"",1359942934831
activated,workbench,org.eclipse.ui.workbench,3.7.0.I20110519-0100,"",1359943061027
deactivated,workbench,org.eclipse.ui.workbench,3.7.0.I20110519-0100,"",1359943062192
activated,workbench,org.eclipse.ui.workbench,3.7.0.I20110519-0100,"",1359943090916
deactivated,workbench,org.eclipse.ui.workbench,3.7.0.I20110519-0100,"",1359943091856
activated,workbench,org.eclipse.ui.workbench,3.7.0.I20110519-0100,"",1359943344972
deactivated,workbench,org.eclipse.ui.workbench,3.7.0.I20110519-0100,"",1359943345771
activated,workbench,org.eclipse.ui.workbench,3.7.0.I20110519-0100,"",1359950715633
deactivated,workbench,org.eclipse.ui.workbench,3.7.0.I20110519-0100,"",1359950716864
activated,workbench,org.eclipse.ui.workbench,3.7.0.I20110519-0100,"",1359950724525
deactivated,workbench,org.eclipse.ui.workbench,3.7.0.I20110519-0100,"",1359950725648
activated,workbench,org.eclipse.ui.workbench,3.7.0.I20110519-0100,"",1359950730246
deactivated,workbench,org.eclipse.ui.workbench,3.7.0.I20110519-0100,"",1359950736262
activated,workbench,org.eclipse.ui.workbench,3.7.0.I20110519-0100,"",1359956630486
deactivated,workbench,org.eclipse.ui.workbench,3.7.0.I20110519-0100,"",1359956638430
activated,workbench,org.eclipse.ui.workbench,3.7.0.I20110519-0100,"",1359960402519
deactivated,workbench,org.eclipse.ui.workbench,3.7.0.I20110519-0100,"",1359960405821
activated,workbench,org.eclipse.ui.workbench,3.7.0.I20110519-0100,"",1359982785941
deactivated,workbench,org.eclipse.ui.workbench,3.7.0.I20110519-0100,"",1359982787237
activated,workbench,org.eclipse.ui.workbench,3.7.0.I20110519-0100,"",1359982788266
deactivated,workbench,org.eclipse.ui.workbench,3.7.0.I20110519-0100,"",1359982788277
activated,workbench,org.eclipse.ui.workbench,3.7.0.I20110519-0100,"",1359983410724
activated,view,org.eclipse.wst.server.ui,1.1.306.v20110823_1704,"org.eclipse.wst.server.ui.ServersView",1359983410752
activated,view,org.eclipse.ui.navigator.resources,3.4.300.I20110421-1800,"org.eclipse.ui.navigator.ProjectExplorer",1359983415094
activated,editor,org.eclipse.jst.jsp.ui,1.1.601.v201108151912,"org.eclipse.jst.jsp.core.jspsource.source",1359983430814
deactivated,workbench,org.eclipse.ui.workbench,3.7.0.I20110519-0100,"",1359983471800
activated,workbench,org.eclipse.ui.workbench,3.7.0.I20110519-0100,"",1359983472158
deactivated,workbench,org.eclipse.ui.workbench,3.7.0.I20110519-0100,"",1359983483838
activated,workbench,org.eclipse.ui.workbench,3.7.0.I20110519-0100,"",1359983696609
deactivated,workbench,org.eclipse.ui.workbench,3.7.0.I20110519-0100,"",1359983698155
activated,workbench,org.eclipse.ui.workbench,3.7.0.I20110519-0100,"",1359984086413
activated,workbench,org.eclipse.ui.workbench,3.7.0.I20110519-0100,"",1359984086762
deactivated,workbench,org.eclipse.ui.workbench,3.7.0.I20110519-0100,"",1359984086769
activated,workbench,org.eclipse.ui.workbench,3.7.0.I20110519-0100,"",1359984094486
deactivated,workbench,org.eclipse.ui.workbench,3.7.0.I20110519-0100,"",1359984147362
activated,workbench,org.eclipse.ui.workbench,3.7.0.I20110519-0100,"",1359984148881
deactivated,workbench,org.eclipse.ui.workbench,3.7.0.I20110519-0100,"",1359984149468
activated,workbench,org.eclipse.ui.workbench,3.7.0.I20110519-0100,"",1359984156417
activated,editor,org.eclipse.jdt.ui,3.7.1.r371_v20110824-0800,"org.eclipse.jdt.ui.CompilationUnitEditor",1359984158406
deactivated,workbench,org.eclipse.ui.workbench,3.7.0.I20110519-0100,"",1359984160629
activated,workbench,org.eclipse.ui.workbench,3.7.0.I20110519-0100,"",1359985235372
deactivated,workbench,org.eclipse.ui.workbench,3.7.0.I20110519-0100,"",1359985236504
activated,workbench,org.eclipse.ui.workbench,3.7.0.I20110519-0100,"",1359997154957
activated,workbench,org.eclipse.ui.workbench,3.7.0.I20110519-0100,"",1359997155232
deactivated,workbench,org.eclipse.ui.workbench,3.7.0.I20110519-0100,"",1359997155435
activated,workbench,org.eclipse.ui.workbench,3.7.0.I20110519-0100,"",1359997157824
closed,workbench,org.eclipse.ui.workbench,3.7.0.I20110519-0100,"",1359997160263
stopped,bundle,org.eclipse.jst.ws.axis.creation.ui,1.0.700.v201104070312,"org.eclipse.jst.ws.axis.creation.ui",1359997162657
stopped,bundle,org.eclipse.jst.ws.axis.consumption.ui,1.0.505.v201004211805,"org.eclipse.jst.ws.axis.consumption.ui",1359997162662
stopped,bundle,org.eclipse.jst.ws.axis.consumption.core,1.0.407.v201104071820,"org.eclipse.jst.ws.axis.consumption.core",1359997162664
stopped,bundle,org.eclipse.jst.ws.axis2.creation.ui,1.0.104.v201004211805,"org.eclipse.jst.ws.axis2.creation.ui",1359997162674
stopped,bundle,org.eclipse.jst.ws.axis2.consumption.ui,1.0.103.v201004211805,"org.eclipse.jst.ws.axis2.consumption.ui",1359997162690
stopped,bundle,org.eclipse.jst.ws.axis2.creation.core,1.0.106.v201004211805,"org.eclipse.jst.ws.axis2.creation.core",1359997162715
stopped,bundle,org.eclipse.jst.ws.axis2.consumption.core,1.0.105.v201004211805,"org.eclipse.jst.ws.axis2.consumption.core",1359997162718
stopped,bundle,org.eclipse.jst.ws.axis2.ui,1.0.303.v201003110431,"org.eclipse.jst.ws.axis2.ui",1359997162733
stopped,bundle,org.eclipse.jst.ws.axis2.core,1.0.204.v201004211805,"org.eclipse.jst.ws.axis2.core",1359997162773
stopped,bundle,org.eclipse.jst.ws.cxf.creation.ui,1.0.100.v201104022153,"org.eclipse.jst.ws.cxf.creation.ui",1359997162807
stopped,bundle,org.eclipse.jst.ws.creation.ui,1.0.609.v201103082016,"org.eclipse.jst.ws.creation.ui",1359997162858
stopped,bundle,org.eclipse.jst.ws.cxf.consumption.ui,1.0.0.v201003222311,"org.eclipse.jst.ws.cxf.consumption.ui",1359997162866
stopped,bundle,org.eclipse.jst.ws.consumption.ui,1.1.401.v201108240414,"org.eclipse.jst.ws.consumption.ui",1359997162916
stopped,bundle,org.eclipse.jst.ws.consumption,1.0.601.v201108230319,"org.eclipse.jst.ws.consumption",1359997162930
stopped,bundle,org.eclipse.jst.ws.cxf.consumption.core,1.0.0.v201003222311,"org.eclipse.jst.ws.cxf.consumption.core",1359997162952
stopped,bundle,org.eclipse.jst.ws.cxf.creation.core,1.0.100.v201104022153,"org.eclipse.jst.ws.cxf.creation.core",1359997163003
stopped,bundle,org.eclipse.jst.ws.cxf.ui,1.0.0.v201004171919,"org.eclipse.jst.ws.cxf.ui",1359997163084
stopped,bundle,org.eclipse.jst.ws.cxf.core,1.0.100.v201104022153,"org.eclipse.jst.ws.cxf.core",1359997163089
stopped,bundle,org.eclipse.jst.ws.uddiregistry,1.0.500.v201004211805,"org.eclipse.jst.ws.uddiregistry",1359997163111
stopped,bundle,org.eclipse.jst.ws.ui,1.0.403.v201004211805,"org.eclipse.jst.ws.ui",1359997163117
stopped,bundle,org.eclipse.jst.ws,1.0.509.v201108250610,"org.eclipse.jst.ws",1359997163121
activated,perspective,org.eclipse.wst.web.ui,,"org.eclipse.wst.web.ui.webDevPerspective",1360132567187
started,bundle,org.eclipse.osgi,3.7.1.R37x_v20110808-1106,"org.eclipse.osgi",1360132567191
started,bundle,org.eclipse.equinox.simpleconfigurator,1.0.200.v20110502-1955,"org.eclipse.equinox.simpleconfigurator",1360132567192
started,bundle,com.ibm.icu,4.4.2.v20110208,"com.ibm.icu",1360132567194
started,bundle,org.eclipse.compare.core,3.5.200.I20110208-0800,"org.eclipse.compare.core",1360132567196
started,bundle,org.eclipse.core.contenttype,3.4.100.v20110423-0524,"org.eclipse.core.contenttype",1360132567197
started,bundle,org.eclipse.core.databinding.observable,1.4.0.I20110222-0800,"org.eclipse.core.databinding.observable",1360132567199
started,bundle,org.eclipse.core.expressions,3.4.300.v20110228,"org.eclipse.core.expressions",1360132567201
started,bundle,org.eclipse.core.filebuffers,3.5.200.v20110505-0800,"org.eclipse.core.filebuffers",1360132567202
started,bundle,org.eclipse.core.filesystem,1.3.100.v20110423-0524,"org.eclipse.core.filesystem",1360132567204
started,bundle,org.eclipse.core.jobs,3.5.100.v20110404,"org.eclipse.core.jobs",1360132567206
started,bundle,org.eclipse.core.net,1.2.100.I20110511-0800,"org.eclipse.core.net",1360132567208
started,bundle,org.eclipse.core.resources,3.7.100.v20110510-0712,"org.eclipse.core.resources",1360132567210
started,bundle,org.eclipse.core.runtime,3.7.0.v20110110,"org.eclipse.core.runtime",1360132567211
started,bundle,org.eclipse.core.runtime.compatibility,3.2.100.v20100505,"org.eclipse.core.runtime.compatibility",1360132567212
started,bundle,org.eclipse.core.runtime.compatibility.auth,3.2.200.v20110110,"org.eclipse.core.runtime.compatibility.auth",1360132567214
started,bundle,org.eclipse.core.variables,3.2.500.v20110511,"org.eclipse.core.variables",1360132567215
started,bundle,org.eclipse.debug.core,3.7.0.v20110518,"org.eclipse.debug.core",1360132567218
started,bundle,org.eclipse.emf.common,2.7.0.v20110912-0920,"org.eclipse.emf.common",1360132567220
started,bundle,org.eclipse.emf.common.ui,2.7.0.v20110913-1156,"org.eclipse.emf.common.ui",1360132567223
started,bundle,org.eclipse.emf.ecore,2.7.0.v20110912-0920,"org.eclipse.emf.ecore",1360132567226
started,bundle,org.eclipse.emf.ecore.xmi,2.7.0.v20110520-1406,"org.eclipse.emf.ecore.xmi",1360132567228
started,bundle,org.eclipse.emf.edit,2.7.1.v20110913-1526,"org.eclipse.emf.edit",1360132567230
started,bundle,org.eclipse.emf.edit.ui,2.7.0.v20110913-1156,"org.eclipse.emf.edit.ui",1360132567232
started,bundle,org.eclipse.epp.mpc.ui,1.1.1.I20110907-0947,"org.eclipse.epp.mpc.ui",1360132567234
started,bundle,org.eclipse.epp.usagedata.gathering,1.3.1.R201106061540,"org.eclipse.epp.usagedata.gathering",1360132567235
started,bundle,org.eclipse.epp.usagedata.recording,1.3.1.R201106061540,"org.eclipse.epp.usagedata.recording",1360132567236
started,bundle,org.eclipse.equinox.app,1.3.100.v20110321,"org.eclipse.equinox.app",1360132567237
started,bundle,org.eclipse.equinox.common,3.6.0.v20110523,"org.eclipse.equinox.common",1360132567238
started,bundle,org.eclipse.equinox.ds,1.3.1.R37x_v20110701,"org.eclipse.equinox.ds",1360132567240
started,bundle,org.eclipse.equinox.event,1.2.100.v20110502,"org.eclipse.equinox.event",1360132567241
started,bundle,org.eclipse.equinox.p2.core,2.1.0.v20110502-1955,"org.eclipse.equinox.p2.core",1360132567242
started,bundle,org.eclipse.equinox.p2.directorywatcher,1.0.300.v20110502-1955,"org.eclipse.equinox.p2.directorywatcher",1360132567244
started,bundle,org.eclipse.equinox.p2.engine,2.1.0.v20110511,"org.eclipse.equinox.p2.engine",1360132567245
started,bundle,org.eclipse.equinox.p2.metadata,2.1.0.v20110510,"org.eclipse.equinox.p2.metadata",1360132567246
started,bundle,org.eclipse.equinox.p2.metadata.repository,1.2.0.v20110511-1359,"org.eclipse.equinox.p2.metadata.repository",1360132567248
started,bundle,org.eclipse.equinox.p2.operations,2.1.0.v20110511-1821,"org.eclipse.equinox.p2.operations",1360132567249
started,bundle,org.eclipse.equinox.p2.reconciler.dropins,1.1.100.v20110510,"org.eclipse.equinox.p2.reconciler.dropins",1360132567250
started,bundle,org.eclipse.equinox.p2.repository,2.1.0.v20110601,"org.eclipse.equinox.p2.repository",1360132567251
started,bundle,org.eclipse.equinox.p2.ui.sdk.scheduler,1.0.100.v20110502-1955,"org.eclipse.equinox.p2.ui.sdk.scheduler",1360132567252
started,bundle,org.eclipse.equinox.p2.updatechecker,1.1.200.v20110502-1955,"org.eclipse.equinox.p2.updatechecker",1360132567253
started,bundle,org.eclipse.equinox.preferences,3.4.1.R37x_v20110725,"org.eclipse.equinox.preferences",1360132567255
started,bundle,org.eclipse.equinox.registry,3.5.101.R37x_v20110810-1611,"org.eclipse.equinox.registry",1360132567256
started,bundle,org.eclipse.equinox.security,1.1.1.R37x_v20110822-1018,"org.eclipse.equinox.security",1360132567258
started,bundle,org.eclipse.equinox.util,1.0.300.v20110502,"org.eclipse.equinox.util",1360132567260
started,bundle,org.eclipse.help,3.5.100.v20110426,"org.eclipse.help",1360132567262
started,bundle,org.eclipse.jdt.apt.core,3.3.500.v20110420-1015,"org.eclipse.jdt.apt.core",1360132567265
started,bundle,org.eclipse.jdt.apt.pluggable.core,1.0.400.v20110305-1450,"org.eclipse.jdt.apt.pluggable.core",1360132567267
started,bundle,org.eclipse.jdt.core,3.7.1.v_B76_R37x,"org.eclipse.jdt.core",1360132567269
started,bundle,org.eclipse.jdt.core.manipulation,1.4.0.v20110505-0800,"org.eclipse.jdt.core.manipulation",1360132567271
started,bundle,org.eclipse.jdt.launching,3.6.1.v20110803_r371,"org.eclipse.jdt.launching",1360132567273
started,bundle,org.eclipse.jdt.ui,3.7.1.r371_v20110824-0800,"org.eclipse.jdt.ui",1360132567273
started,bundle,org.eclipse.jem,2.0.500.v201104271400,"org.eclipse.jem",1360132567275
started,bundle,org.eclipse.jem.util,2.1.100.v201103021400,"org.eclipse.jem.util",1360132567277
started,bundle,org.eclipse.jem.workbench,2.0.400.v201104251400,"org.eclipse.jem.workbench",1360132567279
started,bundle,org.eclipse.jface,3.7.0.I20110522-1430,"org.eclipse.jface",1360132567280
started,bundle,org.eclipse.jpt.common.core,1.0.1.v201108080010,"org.eclipse.jpt.common.core",1360132567282
started,bundle,org.eclipse.jpt.jpa.core,3.0.1.v201109073010,"org.eclipse.jpt.jpa.core",1360132567287
started,bundle,org.eclipse.jsch.core,1.1.300.I20110514-0800,"org.eclipse.jsch.core",1360132567287
started,bundle,org.eclipse.jst.common.frameworks,1.1.500.v201104081500,"org.eclipse.jst.common.frameworks",1360132567289
started,bundle,org.eclipse.jst.common.project.facet.core,1.4.200.v201103170302,"org.eclipse.jst.common.project.facet.core",1360132567291
started,bundle,org.eclipse.jst.j2ee,1.1.501.v201108231845,"org.eclipse.jst.j2ee",1360132567293
started,bundle,org.eclipse.jst.j2ee.core,1.2.101.v201108110300,"org.eclipse.jst.j2ee.core",1360132567294
started,bundle,org.eclipse.jst.j2ee.navigator.ui,1.1.501.v201107261503,"org.eclipse.jst.j2ee.navigator.ui",1360132567295
started,bundle,org.eclipse.jst.j2ee.ui,1.1.501.v201108231700,"org.eclipse.jst.j2ee.ui",1360132567298
started,bundle,org.eclipse.jst.j2ee.web,1.1.501.v201108231500,"org.eclipse.jst.j2ee.web",1360132567301
started,bundle,org.eclipse.jst.j2ee.webservice,1.1.400.v201004110600,"org.eclipse.jst.j2ee.webservice",1360132567304
started,bundle,org.eclipse.jst.j2ee.webservice.ui,1.1.500.v201105122000,"org.eclipse.jst.j2ee.webservice.ui",1360132567307
started,bundle,org.eclipse.jst.jee,1.0.401.v201105122000,"org.eclipse.jst.jee",1360132567309
started,bundle,org.eclipse.jst.jee.ui,1.0.400.v201105122000,"org.eclipse.jst.jee.ui",1360132567310
started,bundle,org.eclipse.jst.server.core,1.2.202.v20110419,"org.eclipse.jst.server.core",1360132567312
started,bundle,org.eclipse.jst.server.tomcat.core,1.1.300.v20110427,"org.eclipse.jst.server.tomcat.core",1360132567315
started,bundle,org.eclipse.jst.ws.jaxrs.core,1.0.301.v201108240656,"org.eclipse.jst.ws.jaxrs.core",1360132567318
started,bundle,org.eclipse.jst.ws.jaxws.utils,1.0.0.v201004171919,"org.eclipse.jst.ws.jaxws.utils",1360132567320
started,bundle,org.eclipse.ltk.core.refactoring,3.5.201.r371_v20110824-0800,"org.eclipse.ltk.core.refactoring",1360132567323
started,bundle,org.eclipse.ltk.ui.refactoring,3.6.0.v20110505-0800,"org.eclipse.ltk.ui.refactoring",1360132567326
started,bundle,org.eclipse.mylyn.bugzilla.core,3.6.2.v20110903-0100,"org.eclipse.mylyn.bugzilla.core",1360132567328
started,bundle,org.eclipse.mylyn.bugzilla.ui,3.6.0.v20110608-1400,"org.eclipse.mylyn.bugzilla.ui",1360132567330
started,bundle,org.eclipse.mylyn.commons.identity,0.8.0.v20110608-1400,"org.eclipse.mylyn.commons.identity",1360132567332
started,bundle,org.eclipse.mylyn.commons.net,3.6.0.v20110608-1400,"org.eclipse.mylyn.commons.net",1360132567332
started,bundle,org.eclipse.mylyn.commons.ui,3.6.1.v20110720-0100,"org.eclipse.mylyn.commons.ui",1360132567334
started,bundle,org.eclipse.mylyn.context.core,3.6.1.v20110720-0100,"org.eclipse.mylyn.context.core",1360132567336
started,bundle,org.eclipse.mylyn.context.ui,3.6.0.v20110608-1400,"org.eclipse.mylyn.context.ui",1360132567339
started,bundle,org.eclipse.mylyn.monitor.ui,3.6.0.v20110608-1400,"org.eclipse.mylyn.monitor.ui",1360132567341
started,bundle,org.eclipse.mylyn.tasks.ui,3.6.2.v20110826-0100,"org.eclipse.mylyn.tasks.ui",1360132567345
started,bundle,org.eclipse.mylyn.team.ui,3.6.1.v20110825-0100,"org.eclipse.mylyn.team.ui",1360132567386
started,bundle,org.eclipse.search,3.7.0.v20110505-0800,"org.eclipse.search",1360132567390
started,bundle,org.eclipse.team.core,3.6.0.I20110525-0800,"org.eclipse.team.core",1360132567393
started,bundle,org.eclipse.team.cvs.core,3.3.400.I20110510-0800,"org.eclipse.team.cvs.core",1360132567396
started,bundle,org.eclipse.team.cvs.ui,3.3.400.I20110510-0800,"org.eclipse.team.cvs.ui",1360132567402
started,bundle,org.eclipse.team.ui,3.6.100.I20110525-0800,"org.eclipse.team.ui",1360132567410
started,bundle,org.eclipse.ui,3.7.0.I20110602-0100,"org.eclipse.ui",1360132567414
started,bundle,org.eclipse.ui.console,3.5.100.v20110511,"org.eclipse.ui.console",1360132567415
started,bundle,org.eclipse.ui.editors,3.7.0.v20110517-0800,"org.eclipse.ui.editors",1360132567415
started,bundle,org.eclipse.ui.forms,3.5.100.v20110425,"org.eclipse.ui.forms",1360132567417
started,bundle,org.eclipse.ui.ide,3.7.0.v20110809-1737,"org.eclipse.ui.ide",1360132567422
started,bundle,org.eclipse.ui.navigator,3.5.100.v20110809-2227,"org.eclipse.ui.navigator",1360132567424
started,bundle,org.eclipse.ui.navigator.resources,3.4.300.I20110421-1800,"org.eclipse.ui.navigator.resources",1360132567427
started,bundle,org.eclipse.ui.net,1.2.100.I20110511-0800,"org.eclipse.ui.net",1360132567430
started,bundle,org.eclipse.ui.views,3.6.0.I20110412-0800,"org.eclipse.ui.views",1360132567433
started,bundle,org.eclipse.ui.workbench,3.7.0.I20110519-0100,"org.eclipse.ui.workbench",1360132567439
started,bundle,org.eclipse.ui.workbench.texteditor,3.7.0.v20110505-0800,"org.eclipse.ui.workbench.texteditor",1360132567443
started,bundle,org.eclipse.update.configurator,3.3.100.v20100512,"org.eclipse.update.configurator",1360132567445
started,bundle,org.eclipse.update.core,3.2.500.v20110330,"org.eclipse.update.core",1360132567448
started,bundle,org.eclipse.update.scheduler,3.2.300.v20100512,"org.eclipse.update.scheduler",1360132567449
started,bundle,org.eclipse.wst.common.core,1.2.0.v200908252030,"org.eclipse.wst.common.core",1360132567451
started,bundle,org.eclipse.wst.common.emf,1.2.100.v201101101900,"org.eclipse.wst.common.emf",1360132567453
started,bundle,org.eclipse.wst.common.emfworkbench.integration,1.2.101.v201107140600,"org.eclipse.wst.common.emfworkbench.integration",1360132567455
started,bundle,org.eclipse.wst.common.frameworks,1.2.101.v201107192200,"org.eclipse.wst.common.frameworks",1360132567457
started,bundle,org.eclipse.wst.common.frameworks.ui,1.2.100.v201105122000,"org.eclipse.wst.common.frameworks.ui",1360132567458
started,bundle,org.eclipse.wst.common.modulecore,1.2.101.v201108231700,"org.eclipse.wst.common.modulecore",1360132567461
started,bundle,org.eclipse.wst.common.project.facet.core,1.4.200.v201103170332,"org.eclipse.wst.common.project.facet.core",1360132567463
started,bundle,org.eclipse.wst.common.ui,1.1.500.v200911190730,"org.eclipse.wst.common.ui",1360132567467
started,bundle,org.eclipse.wst.jsdt.core,1.1.101.v201108151912,"org.eclipse.wst.jsdt.core",1360132567471
started,bundle,org.eclipse.wst.jsdt.manipulation,1.0.300.v201104272153,"org.eclipse.wst.jsdt.manipulation",1360132567474
started,bundle,org.eclipse.wst.jsdt.ui,1.1.101.v201108151912,"org.eclipse.wst.jsdt.ui",1360132567489
started,bundle,org.eclipse.wst.server.core,1.1.303.v20110816_1717,"org.eclipse.wst.server.core",1360132567491
started,bundle,org.eclipse.wst.server.ui,1.1.306.v20110823_1704,"org.eclipse.wst.server.ui",1360132567492
started,bundle,org.eclipse.wst.validation,1.2.302.v201107140600,"org.eclipse.wst.validation",1360132567494
started,bundle,org.eclipse.wst.web,1.1.500.v201104251400,"org.eclipse.wst.web",1360132567496
started,bundle,org.eclipse.wst.xml.core,1.1.601.v201108302147,"org.eclipse.wst.xml.core",1360132567500
started,bundle,oracle.eclipse.tools.glassfish,4.2.1.201201241947,"oracle.eclipse.tools.glassfish",1360132567504
os,sysinfo,,,"win32",1360132567513
arch,sysinfo,,,"x86",1360132567513
ws,sysinfo,,,"win32",1360132567513
locale,sysinfo,,,"en_US",1360132567513
processors,sysinfo,,,"4",1360132567513
java.runtime.name,sysinfo,,,"Java(TM) SE Runtime Environment",1360132567514
java.runtime.version,sysinfo,,,"1.6.0_37-b06",1360132567514
java.specification.name,sysinfo,,,"Java Platform API Specification",1360132567514
java.specification.vendor,sysinfo,,,"Sun Microsystems Inc.",1360132567514
java.specification.version,sysinfo,,,"1.6",1360132567514
java.vendor,sysinfo,,,"Sun Microsystems Inc.",1360132567514
java.version,sysinfo,,,"1.6.0_37",1360132567514
java.vm.info,sysinfo,,,"mixed mode, sharing",1360132567514
java.vm.name,sysinfo,,,"Java HotSpot(TM) Client VM",1360132567514
java.vm.specification.name,sysinfo,,,"Java Virtual Machine Specification",1360132567514
java.vm.specification.vendor,sysinfo,,,"Sun Microsystems Inc.",1360132567514
java.vm.specification.version,sysinfo,,,"1.0",1360132567514
java.vm.vendor,sysinfo,,,"Sun Microsystems Inc.",1360132567514
java.vm.version,sysinfo,,,"20.12-b01",1360132567514
opened,view,org.eclipse.ui.ide,3.7.0.v20110809-1737,"org.eclipse.ui.views.ProblemView",1360132568290
activated,view,org.eclipse.ui.navigator.resources,3.4.300.I20110421-1800,"org.eclipse.ui.navigator.ProjectExplorer",1360132568658
started,bundle,org.eclipse.epp.usagedata.ui,1.3.1.R201106061540,"org.eclipse.epp.usagedata.ui",1360132568876
deactivated,workbench,org.eclipse.ui.workbench,3.7.0.I20110519-0100,"",1360132571342
activated,workbench,org.eclipse.ui.workbench,3.7.0.I20110519-0100,"",1360132573886
started,bundle,org.eclipse.wst.dtd.core,1.1.501.v201107252021,"org.eclipse.wst.dtd.core",1360132574738
started,bundle,org.eclipse.wst.sse.ui,1.3.1.v201108191312,"org.eclipse.wst.sse.ui",1360132574748
started,bundle,org.eclipse.wst.html.ui,1.0.601.v201108152113,"org.eclipse.wst.html.ui",1360132574750
started,bundle,org.eclipse.wst.sse.core,1.1.601.v201108151912,"org.eclipse.wst.sse.core",1360132574787
