<?xml version="1.0" encoding="UTF-8"?>
<session version="1.0">
<refactoring comment="Copy 32 elements to &apos;lib&apos;&#x0D;&#x0A;- Original project: &apos;strutsispringihibernate&apos;&#x0D;&#x0A;- Destination element: &apos;lib&apos;&#x0D;&#x0A;- Original elements:&#x0D;&#x0A;     dom4j-1.6.jar&#x0D;&#x0A;     commons-dbcp.jar&#x0D;&#x0A;     junit-3.8.1.jar&#x0D;&#x0A;     hsqldb.jar&#x0D;&#x0A;     struts2-convention-plugin-2.1.6.jar&#x0D;&#x0A;     standard.jar&#x0D;&#x0A;     log4j-1.2.8.jar&#x0D;&#x0A;     spring.jar&#x0D;&#x0A;     cglib-2.1.jar&#x0D;&#x0A;     struts2-core-2.1.6.jar&#x0D;&#x0A;     jta.jar&#x0D;&#x0A;     commons-io-1.3.2.jar&#x0D;&#x0A;     commons-collections-2.1.1.jar&#x0D;&#x0A;     antlr-2.7.5H3.jar&#x0D;&#x0A;     commons-pool.jar&#x0D;&#x0A;     commons-logging-1.0.4.jar&#x0D;&#x0A;     springhibernate.jar&#x0D;&#x0A;     ant-antlr-1.6.3.jar&#x0D;&#x0A;     ehcache-1.1.jar&#x0D;&#x0A;     xwork-2.1.2.jar&#x0D;&#x0A;     asm-attrs.jar&#x0D;&#x0A;     commons-logging-1.1.jar&#x0D;&#x0A;     commons-lang-2.0.jar&#x0D;&#x0A;     xerces-2.6.2.jar&#x0D;&#x0A;     asm.jar&#x0D;&#x0A;     commons-fileupload-1.2.1.jar&#x0D;&#x0A;     commons-logging.jar&#x0D;&#x0A;     freemarker-2.3.13.jar&#x0D;&#x0A;     ognl-2.6.11.jar&#x0D;&#x0A;     jstl.jar&#x0D;&#x0A;     j2ee.jar&#x0D;&#x0A;     hibernate3.jar" description="Copy files" element1="WebContent/WEB-INF/lib/dom4j-1.6.jar" element10="WebContent/WEB-INF/lib/struts2-core-2.1.6.jar" element11="WebContent/WEB-INF/lib/jta.jar" element12="WebContent/WEB-INF/lib/commons-io-1.3.2.jar" element13="WebContent/WEB-INF/lib/commons-collections-2.1.1.jar" element14="WebContent/WEB-INF/lib/antlr-2.7.5H3.jar" element15="WebContent/WEB-INF/lib/commons-pool.jar" element16="WebContent/WEB-INF/lib/commons-logging-1.0.4.jar" element17="WebContent/WEB-INF/lib/springhibernate.jar" element18="WebContent/WEB-INF/lib/ant-antlr-1.6.3.jar" element19="WebContent/WEB-INF/lib/ehcache-1.1.jar" element2="WebContent/WEB-INF/lib/commons-dbcp.jar" element20="WebContent/WEB-INF/lib/xwork-2.1.2.jar" element21="WebContent/WEB-INF/lib/asm-attrs.jar" element22="WebContent/WEB-INF/lib/commons-logging-1.1.jar" element23="WebContent/WEB-INF/lib/commons-lang-2.0.jar" element24="WebContent/WEB-INF/lib/xerces-2.6.2.jar" element25="WebContent/WEB-INF/lib/asm.jar" element26="WebContent/WEB-INF/lib/commons-fileupload-1.2.1.jar" element27="WebContent/WEB-INF/lib/commons-logging.jar" element28="WebContent/WEB-INF/lib/freemarker-2.3.13.jar" element29="WebContent/WEB-INF/lib/ognl-2.6.11.jar" element3="WebContent/WEB-INF/lib/junit-3.8.1.jar" element30="WebContent/WEB-INF/lib/jstl.jar" element31="WebContent/WEB-INF/lib/j2ee.jar" element32="WebContent/WEB-INF/lib/hibernate3.jar" element4="WebContent/WEB-INF/lib/hsqldb.jar" element5="WebContent/WEB-INF/lib/struts2-convention-plugin-2.1.6.jar" element6="WebContent/WEB-INF/lib/standard.jar" element7="WebContent/WEB-INF/lib/log4j-1.2.8.jar" element8="WebContent/WEB-INF/lib/spring.jar" element9="WebContent/WEB-INF/lib/cglib-2.1.jar" files="32" flags="589830" folders="0" id="org.eclipse.jdt.ui.copy" policy="org.eclipse.jdt.ui.copyResources" stamp="1356114595001" target="/Struts_Spring_Hibernate_Integration/WebContent/WEB-INF/lib" units="0" version="1.0"/>
</session>