<?xml version="1.0" encoding="UTF-8"?>
<session version="1.0">
<refactoring accessors="true" comment="Delete 2 elements from project &apos;hibernate&apos;&#x0D;&#x0A;- Original project: &apos;hibernate&apos;&#x0D;&#x0A;- Original elements:&#x0D;&#x0A;     Login.java&#x0D;&#x0A;     LoginAccess.java" description="Delete elements" element1="/src&lt;{Login.java" element2="/src&lt;{LoginAccess.java" elements="2" flags="589830" id="org.eclipse.jdt.ui.delete" resources="0" stamp="1355563719474" subPackages="false" version="1.0"/>
</session>