^E:\TRAINING\MICROSOFT WPF\06 DEMO PROJECTS\WPF\WPFREFERENCE\PROPERTIES\RESOURCES.RESX
E:\TRAINING\MICROSOFT WPF\06 DEMO PROJECTS\WPF\WPFREFERENCE\OBJ\DEBUG\WPFREFERENCE.PROPERTIES.RESOURCES.RESOURCES
^E:\WPF\WPFREFERENCE\PROPERTIES\RESOURCES.RESX
E:\WPF\WPFREFERENCE\OBJ\DEBUG\WPFREFERENCE.PROPERTIES.RESOURCES.RESOURCES
