INDEX VERSION 1.126+D:\myWorkSpace\.metadata\.plugins\org.eclipse.jdt.core
3783290584.index
3280671860.index
788649456.index
3082331474.index
3571179708.index
2580419280.index
429152745.index
1777782316.index
25170641.index
1673178904.index
3370536165.index
868927685.index
226848898.index
3093998829.index
2473799763.index
755187567.index
1299067145.index
3738021125.index
1193920535.index
3135069550.index
3140045379.index
63690998.index
1421789068.index
630840767.index
498403161.index
2238733732.index
2370008750.index
2375370348.index
1147197483.index
2337794325.index
654914339.index
424405955.index
994411511.index
3111123285.index
1892485284.index
3453334043.index
3800654029.index
163958856.index
3816042081.index
3579111910.index
2435942938.index
539189073.index
808662253.index
848959954.index
1447743592.index
4275241366.index
1374063531.index
2135861909.index
3124130063.index
529437705.index
1417962224.index
3495853631.index
526876119.index
1886191137.index
1978296072.index
322001403.index
3751437574.index
3003660420.index
1196475332.index
2816786010.index
1290818712.index
22879313.index
1402695929.index
577471458.index
2203766516.index
1734202666.index
3786274812.index
3173533893.index
1887539954.index
234689055.index
4179302135.index
1756744440.index
1174782286.index
893060782.index
4262707636.index
2105401903.index
6448131.index
1143721272.index
1076668606.index
2418200859.index
2441873701.index
372395515.index
2856288743.index
3013623181.index
3289287950.index
1313510633.index
605759250.index
2845934839.index
3533445913.index
3596786055.index
4074171302.index
2401488118.index
4154716515.index
237396216.index
3711216102.index
1315207781.index
1040871700.index
968300114.index
1926816125.index
919954338.index
2802682607.index
1018002540.index
4242379529.index
3956274254.index
2226430636.index
3603741819.index
1932849206.index
247341342.index
3948191078.index
3599333404.index
2843932020.index
2953100469.index
3808446640.index
1317641387.index
31467501.index
2255557259.index
4050959524.index
3595975183.index
254244154.index
4116885556.index
1666784615.index
3751618082.index
3092996078.index
777434364.index
1358439493.index
2753952873.index
1064089447.index
1178034529.index
1432615888.index
1942149172.index
3633846247.index
4124148930.index
801387275.index
4290296651.index
1883039308.index
4277262667.index
284385591.index
719891811.index
3607958942.index
2629762050.index
305194772.index
2990296875.index
2975038032.index
2061153465.index
3240251801.index
688880244.index
2257843830.index
115692205.index
635939134.index
1839198209.index
3929393130.index
3772613413.index
1957401076.index
3999098223.index
3287290874.index
3165880789.index
4127788815.index
2283143869.index
949450769.index
2023811097.index
1200227490.index
1895709437.index
3948441317.index
1823800918.index
2103642183.index
82479211.index
3072087500.index
3969769751.index
818455597.index
1151231945.index
3153417241.index
432149521.index
746631192.index
1597981629.index
989118166.index
2063115938.index
463996162.index
3455751584.index
1496960359.index
16940265.index
1152464804.index
348890964.index
326466701.index
2676340037.index
779231399.index
1086003368.index
3313082056.index
3572229731.index
3435270416.index
1712690309.index
1058437872.index
553269957.index
3999346989.index
3316977620.index
1724604754.index
3218549363.index
289736320.index
3026433285.index
4060548646.index
3895996738.index
488665129.index
1481045990.index
1831325401.index
975271451.index
3082337054.index
936150257.index
2464970581.index
955475906.index
2383727736.index
3800790547.index
826738409.index
181836852.index
3711551864.index
3231911420.index
3650915297.index
2725810218.index
3213572377.index
2974117022.index
480464501.index
1143318016.index
3639610419.index
253643153.index
274213171.index
3669095089.index
1232373241.index
2443246010.index
1602817718.index
878879460.index
573544900.index
1926386282.index
1082225819.index
2159078591.index
2267752997.index
3944903093.index
3928660576.index
1444532156.index
3537603865.index
2400130354.index
4286718105.index
1403633177.index
2874261150.index
2870082618.index
171082156.index
384521166.index
4087476909.index
4264222389.index
1835409132.index
308034057.index
627673467.index
2028697553.index
270646066.index
625619464.index
1357247146.index
2518034544.index
857271779.index
2080605113.index
3460532718.index
2415552999.index
3102416638.index
1505370796.index
1469305990.index
312484445.index
809562134.index
971619254.index
1124713904.index
679199316.index
2408673939.index
3095493416.index
3982105185.index
2978975959.index
1267984009.index
3368250247.index
1654388249.index
4082105001.index
3926974745.index
1165026740.index
3608802744.index
799197847.index
1362225442.index
671866417.index
2390158259.index
1879537121.index
366126827.index
2351904166.index
757139666.index
2823933541.index
2319503068.index
2479909925.index
3291799386.index
1986712883.index
621508129.index
392915726.index
3037363394.index
1140630463.index
3773443637.index
2421822856.index
1551423737.index
329951207.index
2423156381.index
3398155491.index
3002140741.index
71166690.index
73773413.index
1395895328.index
1466392432.index
1521423759.index
3369079640.index
3380377436.index
1810789453.index
3136998161.index
933638545.index
3986684934.index
3247878303.index
3739400015.index
4064610349.index
3282935005.index
2891955744.index
1272507924.index
2887193911.index
2041806101.index
798724291.index
2792190652.index
295122120.index
1784982505.index
870959625.index
4284093014.index
3445240910.index
2306022071.index
1000266010.index
626288018.index
3681940187.index
3013810432.index
676219889.index
543762842.index
796202384.index
3213174657.index
1922764132.index
192254066.index
509152204.index
2998245930.index
3286453061.index
1962638457.index
1927489141.index
3823180181.index
2594843558.index
3175504562.index
2283734337.index
4239959558.index
2957780404.index
2371517275.index
128152112.index
1980062996.index
2598658351.index
2243591014.index
1593488673.index
658533421.index
1813116037.index
4012221957.index
1750218801.index
147077748.index
3343967266.index
558868258.index
3353365746.index
2493765347.index
