Tag Library Index 1.1.0
BUILDPATH_DIRTY|false
BUILDPATH_ENTRIES|51
JAR|false|false|H:/DAC/JEE/StrutsSpringHibernateMilan/WebContent/WEB-INF/lib/commons-io-1.3.2.jar
JAR|false|false|H:/DAC/JEE/StrutsSpringHibernateMilan/WebContent/WEB-INF/lib/spring-context-support.jar
JAR|false|false|H:/DAC/JEE/StrutsSpringHibernateMilan/WebContent/WEB-INF/lib/ojdbc6_g.jar
JAR|false|false|H:/DAC/JEE/StrutsSpringHibernateMilan/WebContent/WEB-INF/lib/commons-digester.jar
JAR|false|false|H:/DAC/JEE/StrutsSpringHibernateMilan/WebContent/WEB-INF/lib/spring-jms.jar
JAR|false|false|H:/DAC/JEE/StrutsSpringHibernateMilan/WebContent/WEB-INF/lib/slf4j-api-1.6.1.jar
JAR|false|false|H:/DAC/JEE/StrutsSpringHibernateMilan/WebContent/WEB-INF/lib/freemarker-2.3.13.jar
JAR|false|false|H:/DAC/JEE/StrutsSpringHibernateMilan/WebContent/WEB-INF/lib/commons-fileupload-1.2.1.jar
JAR|false|false|H:/DAC/JEE/StrutsSpringHibernateMilan/WebContent/WEB-INF/lib/struts2-convention-plugin-2.1.6.jar
JAR|false|false|H:/DAC/JEE/StrutsSpringHibernateMilan/WebContent/WEB-INF/lib/spring-webmvc.jar
URL|false|jar:file:H:/DAC/JEE/StrutsSpringHibernateMilan/WebContent/WEB-INF/lib/spring-webmvc.jar!/META-INF/spring.tld
URL|true|jar:file:H:/DAC/JEE/StrutsSpringHibernateMilan/WebContent/WEB-INF/lib/spring-webmvc.jar!/META-INF/spring.tld
URL|true|jar:file:H:/DAC/JEE/StrutsSpringHibernateMilan/WebContent/WEB-INF/lib/spring-webmvc.jar!/META-INF/spring-form.tld
URL|false|jar:file:H:/DAC/JEE/StrutsSpringHibernateMilan/WebContent/WEB-INF/lib/spring-webmvc.jar!/META-INF/spring-form.tld
JAR|false|false|H:/DAC/JEE/StrutsSpringHibernateMilan/WebContent/WEB-INF/lib/spring-aop.jar
JAR|false|false|H:/DAC/JEE/StrutsSpringHibernateMilan/WebContent/WEB-INF/lib/struts2-core-2.1.6.jar
URL|false|jar:file:H:/DAC/JEE/StrutsSpringHibernateMilan/WebContent/WEB-INF/lib/struts2-core-2.1.6.jar!/META-INF/struts-tags.tld
URL|true|jar:file:H:/DAC/JEE/StrutsSpringHibernateMilan/WebContent/WEB-INF/lib/struts2-core-2.1.6.jar!/META-INF/struts-tags.tld
JAR|false|false|H:/DAC/JEE/StrutsSpringHibernateMilan/WebContent/WEB-INF/lib/commons-io.jar
JAR|false|false|H:/DAC/JEE/StrutsSpringHibernateMilan/WebContent/WEB-INF/lib/dom4j-1.6.1.jar
JAR|false|false|H:/DAC/JEE/StrutsSpringHibernateMilan/WebContent/WEB-INF/lib/javassist-3.12.0.GA.jar
JAR|false|false|H:/DAC/JEE/StrutsSpringHibernateMilan/WebContent/WEB-INF/lib/ojdbc14.jar
JAR|false|false|H:/DAC/JEE/StrutsSpringHibernateMilan/WebContent/WEB-INF/lib/commons-httpclient.jar
JAR|false|false|H:/DAC/JEE/StrutsSpringHibernateMilan/WebContent/WEB-INF/lib/commons-codec.jar
JAR|false|false|H:/DAC/JEE/StrutsSpringHibernateMilan/WebContent/WEB-INF/lib/spring-core.jar
JAR|false|false|H:/DAC/JEE/StrutsSpringHibernateMilan/WebContent/WEB-INF/lib/commons-discovery.jar
JAR|false|false|H:/DAC/JEE/StrutsSpringHibernateMilan/WebContent/WEB-INF/lib/xwork-2.1.2.jar
JAR|false|false|H:/DAC/JEE/StrutsSpringHibernateMilan/WebContent/WEB-INF/lib/spring-orm.jar
JAR|false|false|H:/DAC/JEE/StrutsSpringHibernateMilan/WebContent/WEB-INF/lib/ojdbc5.jar
JAR|false|false|H:/DAC/JEE/StrutsSpringHibernateMilan/WebContent/WEB-INF/lib/spring-webmvc-struts.jar
JAR|false|false|H:/DAC/JEE/StrutsSpringHibernateMilan/WebContent/WEB-INF/lib/commons-collections-3.1.jar
JAR|false|false|H:/DAC/JEE/StrutsSpringHibernateMilan/WebContent/WEB-INF/lib/commons-collections.jar
JAR|false|false|H:/DAC/JEE/StrutsSpringHibernateMilan/WebContent/WEB-INF/lib/antlr-2.7.6.jar
JAR|false|false|H:/DAC/JEE/StrutsSpringHibernateMilan/WebContent/WEB-INF/lib/spring-test.jar
JAR|false|false|H:/DAC/JEE/StrutsSpringHibernateMilan/WebContent/WEB-INF/lib/commons-fileupload.jar
JAR|false|false|H:/DAC/JEE/StrutsSpringHibernateMilan/WebContent/WEB-INF/lib/spring-tx.jar
JAR|false|false|H:/DAC/JEE/StrutsSpringHibernateMilan/WebContent/WEB-INF/lib/ognl-2.6.11.jar
JAR|false|false|H:/DAC/JEE/StrutsSpringHibernateMilan/WebContent/WEB-INF/lib/commons-pool.jar
JAR|false|false|H:/DAC/JEE/StrutsSpringHibernateMilan/WebContent/WEB-INF/lib/hibernate-jpa-2.0-api-1.0.1.Final.jar
JAR|false|false|H:/DAC/JEE/StrutsSpringHibernateMilan/WebContent/WEB-INF/lib/spring-beans.jar
JAR|false|false|H:/DAC/JEE/StrutsSpringHibernateMilan/WebContent/WEB-INF/lib/spring-webmvc-portlet.jar
JAR|false|false|H:/DAC/JEE/StrutsSpringHibernateMilan/WebContent/WEB-INF/lib/spring-jdbc.jar
JAR|false|false|H:/DAC/JEE/StrutsSpringHibernateMilan/WebContent/WEB-INF/lib/ojdbc6.jar
JAR|false|false|H:/DAC/JEE/StrutsSpringHibernateMilan/WebContent/WEB-INF/lib/jta-1.1.jar
JAR|false|false|H:/DAC/JEE/StrutsSpringHibernateMilan/WebContent/WEB-INF/lib/commons-logging-1.1.jar
JAR|false|false|H:/DAC/JEE/StrutsSpringHibernateMilan/WebContent/WEB-INF/lib/hibernate3.jar
JAR|false|false|H:/DAC/JEE/StrutsSpringHibernateMilan/WebContent/WEB-INF/lib/commons-dbcp.jar
JAR|false|false|H:/DAC/JEE/StrutsSpringHibernateMilan/WebContent/WEB-INF/lib/commons-logging.jar
JAR|false|false|H:/DAC/JEE/StrutsSpringHibernateMilan/WebContent/WEB-INF/lib/commons-beanutils.jar
JAR|false|false|H:/DAC/JEE/StrutsSpringHibernateMilan/WebContent/WEB-INF/lib/spring-context.jar
JAR|false|false|H:/DAC/JEE/StrutsSpringHibernateMilan/WebContent/WEB-INF/lib/junit-3.8.1.jar
JAR|false|false|H:/DAC/JEE/StrutsSpringHibernateMilan/WebContent/WEB-INF/lib/mysql-connector-java-5.1.19-bin.jar
JAR|false|false|H:/DAC/JEE/StrutsSpringHibernateMilan/WebContent/WEB-INF/lib/spring-web.jar
JAR|false|false|H:/DAC/JEE/StrutsSpringHibernateMilan/WebContent/WEB-INF/lib/spring.jar
JAR|false|false|H:/DAC/JEE/StrutsSpringHibernateMilan/WebContent/WEB-INF/lib/commons-validator.jar
JAR|false|false|H:/DAC/JEE/StrutsSpringHibernateMilan/WebContent/WEB-INF/lib/commons-lang.jar
