^E:\VENDINGMACHINECLIENT\FORM1.RESX|E:\VENDINGMACHINECLIENT\PROPERTIES\RESOURCES.RESX
E:\VENDINGMACHINECLIENT\OBJ\DEBUG\VENDINGMACHINECLIENT.FORM1.RESOURCES
E:\VENDINGMACHINECLIENT\OBJ\DEBUG\VENDINGMACHINECLIENT.PROPERTIES.RESOURCES.RESOURCES
