<?xml version="1.0" encoding="UTF-8"?>
<session version="1.0">
<refactoring comment="Delete resource &apos;HibernateDemo&apos;" deleteContents="false" description="Delete resource &apos;HibernateDemo&apos;" element1="/HibernateDemo" flags="7" id="org.eclipse.ltk.core.refactoring.delete.resources" resources="1" stamp="1355562164947"/>
</session>