what,kind,bundleId,bundleVersion,description,time
executed,command,org.eclipse.ui,3.7.0.I20110602-0100,"org.eclipse.ui.edit.text.contentAssist.proposals",1356142522816
executed,command,org.eclipse.ui,3.7.0.I20110602-0100,"org.eclipse.ui.file.save",1356142546200
executed,command,org.eclipse.ui,3.7.0.I20110602-0100,"org.eclipse.ui.edit.text.contentAssist.proposals",1356142551660
executed,command,org.eclipse.ui,3.7.0.I20110602-0100,"org.eclipse.ui.edit.text.contentAssist.proposals",1356142562752
executed,command,org.eclipse.ui,3.7.0.I20110602-0100,"org.eclipse.ui.edit.text.contentAssist.proposals",1356142568867
executed,command,org.eclipse.ui,3.7.0.I20110602-0100,"org.eclipse.ui.file.save",1356142574124
activated,editor,org.eclipse.jst.jsp.ui,1.1.601.v201108151912,"org.eclipse.jst.jsp.core.jspsource.source",1356142577151
deactivated,workbench,org.eclipse.ui.workbench,3.7.0.I20110519-0100,"",1356142582751
activated,workbench,org.eclipse.ui.workbench,3.7.0.I20110519-0100,"",1356142583796
executed,command,org.eclipse.wst.server.ui,1.1.306.v20110823_1704,"org.eclipse.wst.server.launchShortcut.run",1356142583812
opened,editor,org.eclipse.ui.browser,3.3.100.v20110426,"org.eclipse.ui.browser.editor",1356142586481
activated,editor,org.eclipse.ui.browser,3.3.100.v20110426,"org.eclipse.ui.browser.editor",1356142586513
executed,command,org.eclipse.ui,3.7.0.I20110602-0100,"org.eclipse.ui.edit.copy",1356142608062
deactivated,workbench,org.eclipse.ui.workbench,3.7.0.I20110519-0100,"",1356142609170
activated,workbench,org.eclipse.ui.workbench,3.7.0.I20110519-0100,"",1356142619373
activated,editor,org.eclipse.jst.jsp.ui,1.1.601.v201108151912,"org.eclipse.jst.jsp.core.jspsource.source",1356142621027
executed,command,org.eclipse.ui,3.7.0.I20110602-0100,"org.eclipse.ui.file.save",1356142627189
activated,editor,org.eclipse.ui.browser,3.3.100.v20110426,"org.eclipse.ui.browser.editor",1356142628702
activated,editor,org.eclipse.jst.jsp.ui,1.1.601.v201108151912,"org.eclipse.jst.jsp.core.jspsource.source",1356142630184
activated,editor,org.eclipse.wst.css.ui,1.0.600.v201103022054,"org.eclipse.wst.css.core.csssource.source",1356142631245
executed,command,org.eclipse.ui,3.7.0.I20110602-0100,"org.eclipse.ui.file.save",1356142638889
deactivated,workbench,org.eclipse.ui.workbench,3.7.0.I20110519-0100,"",1356142640792
activated,workbench,org.eclipse.ui.workbench,3.7.0.I20110519-0100,"",1356142647843
activated,editor,org.eclipse.jst.jsp.ui,1.1.601.v201108151912,"org.eclipse.jst.jsp.core.jspsource.source",1356142650994
executed,command,org.eclipse.ui,3.7.0.I20110602-0100,"org.eclipse.ui.file.save",1356142670260
executed,command,org.eclipse.ui,3.7.0.I20110602-0100,"org.eclipse.ui.edit.cut",1356142673864
executed,command,org.eclipse.ui,3.7.0.I20110602-0100,"org.eclipse.ui.edit.paste",1356142676625
executed,command,org.eclipse.ui,3.7.0.I20110602-0100,"org.eclipse.ui.file.save",1356142678170
executed,command,org.eclipse.ui,3.7.0.I20110602-0100,"org.eclipse.ui.edit.copy",1356142682725
activated,editor,org.eclipse.wst.css.ui,1.0.600.v201103022054,"org.eclipse.wst.css.core.csssource.source",1356142684691
executed,command,org.eclipse.ui,3.7.0.I20110602-0100,"org.eclipse.ui.edit.paste",1356142691430
executed,command,org.eclipse.ui,3.7.0.I20110602-0100,"org.eclipse.ui.file.save",1356142699292
deactivated,workbench,org.eclipse.ui.workbench,3.7.0.I20110519-0100,"",1356142701429
activated,workbench,org.eclipse.ui.workbench,3.7.0.I20110519-0100,"",1356142709760
executed,command,org.eclipse.ui.workbench.texteditor,3.7.0.v20110505-0800,"org.eclipse.ui.edit.text.select.lineEnd",1356142723269
executed,command,org.eclipse.ui,3.7.0.I20110602-0100,"org.eclipse.ui.edit.copy",1356142724065
executed,command,org.eclipse.ui.workbench.texteditor,3.7.0.v20110505-0800,"org.eclipse.ui.edit.text.scroll.lineDown",1356142724237
executed,command,org.eclipse.ui,3.7.0.I20110602-0100,"org.eclipse.ui.edit.paste",1356142726436
executed,command,org.eclipse.ui,3.7.0.I20110602-0100,"org.eclipse.ui.file.save",1356142731210
deactivated,workbench,org.eclipse.ui.workbench,3.7.0.I20110519-0100,"",1356142731865
activated,workbench,org.eclipse.ui.workbench,3.7.0.I20110519-0100,"",1356142741506
executed,command,org.eclipse.ui,3.7.0.I20110602-0100,"org.eclipse.ui.edit.delete",1356142747808
executed,command,org.eclipse.ui,3.7.0.I20110602-0100,"org.eclipse.ui.file.save",1356142749477
deactivated,workbench,org.eclipse.ui.workbench,3.7.0.I20110519-0100,"",1356142750086
activated,workbench,org.eclipse.ui.workbench,3.7.0.I20110519-0100,"",1356142756560
executed,command,org.eclipse.ui,3.7.0.I20110602-0100,"org.eclipse.ui.file.save",1356142766107
deactivated,workbench,org.eclipse.ui.workbench,3.7.0.I20110519-0100,"",1356142766544
activated,workbench,org.eclipse.ui.workbench,3.7.0.I20110519-0100,"",1356142768353
executed,command,org.eclipse.ui,3.7.0.I20110602-0100,"org.eclipse.ui.file.save",1356142772409
executed,command,org.eclipse.ui,3.7.0.I20110602-0100,"org.eclipse.ui.file.save",1356142782347
deactivated,workbench,org.eclipse.ui.workbench,3.7.0.I20110519-0100,"",1356142782752
activated,workbench,org.eclipse.ui.workbench,3.7.0.I20110519-0100,"",1356142793813
executed,command,org.eclipse.ui.workbench.texteditor,3.7.0.v20110505-0800,"org.eclipse.ui.edit.text.select.lineStart",1356142803844
executed,command,org.eclipse.ui,3.7.0.I20110602-0100,"org.eclipse.ui.edit.delete",1356142805123
executed,command,org.eclipse.ui,3.7.0.I20110602-0100,"org.eclipse.ui.file.save",1356142807151
deactivated,workbench,org.eclipse.ui.workbench,3.7.0.I20110519-0100,"",1356142807588
activated,workbench,org.eclipse.ui.workbench,3.7.0.I20110519-0100,"",1356142811363
executed,command,org.eclipse.ui.workbench.texteditor,3.7.0.v20110505-0800,"org.eclipse.ui.edit.text.select.lineStart",1356142813048
executed,command,org.eclipse.ui,3.7.0.I20110602-0100,"org.eclipse.ui.edit.delete",1356142813500
executed,command,org.eclipse.ui,3.7.0.I20110602-0100,"org.eclipse.ui.file.save",1356142814888
deactivated,workbench,org.eclipse.ui.workbench,3.7.0.I20110519-0100,"",1356142815356
activated,workbench,org.eclipse.ui.workbench,3.7.0.I20110519-0100,"",1356142819475
executed,command,org.eclipse.ui,3.7.0.I20110602-0100,"org.eclipse.ui.file.save",1356142825964
executed,command,org.eclipse.ui,3.7.0.I20110602-0100,"org.eclipse.ui.file.save",1356142833593
deactivated,workbench,org.eclipse.ui.workbench,3.7.0.I20110519-0100,"",1356142834108
activated,workbench,org.eclipse.ui.workbench,3.7.0.I20110519-0100,"",1356142854091
activated,editor,org.eclipse.jst.jsp.ui,1.1.601.v201108151912,"org.eclipse.jst.jsp.core.jspsource.source",1356142861766
executed,command,org.eclipse.ui,3.7.0.I20110602-0100,"org.eclipse.ui.file.save",1356142883248
executed,command,org.eclipse.ui,3.7.0.I20110602-0100,"org.eclipse.ui.edit.cut",1356142894277
executed,command,org.eclipse.ui,3.7.0.I20110602-0100,"org.eclipse.ui.edit.paste",1356142902295
executed,command,org.eclipse.wst.sse.ui,1.3.1.v201108191312,"org.eclipse.wst.sse.ui.add.block.comment",1356142918223
executed,command,org.eclipse.ui,3.7.0.I20110602-0100,"org.eclipse.ui.file.save",1356142920875
executed,command,org.eclipse.ui,3.7.0.I20110602-0100,"org.eclipse.ui.file.save",1356142939533
executed,command,org.eclipse.wst.sse.ui,1.3.1.v201108191312,"org.eclipse.wst.sse.ui.add.block.comment",1356142953027
executed,command,org.eclipse.ui,3.7.0.I20110602-0100,"org.eclipse.ui.file.save",1356142954243
activated,editor,org.eclipse.ui.browser,3.3.100.v20110426,"org.eclipse.ui.browser.editor",1356142964602
activated,editor,org.eclipse.wst.css.ui,1.0.600.v201103022054,"org.eclipse.wst.css.core.csssource.source",1356142966536
executed,command,org.eclipse.ui.workbench.texteditor,3.7.0.v20110505-0800,"org.eclipse.ui.edit.text.select.lineEnd",1356142984663
executed,command,org.eclipse.ui,3.7.0.I20110602-0100,"org.eclipse.ui.edit.cut",1356142985927
executed,command,org.eclipse.ui,3.7.0.I20110602-0100,"org.eclipse.ui.edit.paste",1356142987799
executed,command,org.eclipse.ui,3.7.0.I20110602-0100,"org.eclipse.ui.file.save",1356142988860
deactivated,workbench,org.eclipse.ui.workbench,3.7.0.I20110519-0100,"",1356142989531
activated,workbench,org.eclipse.ui.workbench,3.7.0.I20110519-0100,"",1356142990264
deactivated,workbench,org.eclipse.ui.workbench,3.7.0.I20110519-0100,"",1356142990669
activated,workbench,org.eclipse.ui.workbench,3.7.0.I20110519-0100,"",1356142994179
executed,command,org.eclipse.ui,3.7.0.I20110602-0100,"org.eclipse.ui.file.save",1356143001870
deactivated,workbench,org.eclipse.ui.workbench,3.7.0.I20110519-0100,"",1356143002323
activated,workbench,org.eclipse.ui.workbench,3.7.0.I20110519-0100,"",1356143006613
executed,command,org.eclipse.ui,3.7.0.I20110602-0100,"org.eclipse.ui.edit.text.contentAssist.proposals",1356143011620
executed,command,org.eclipse.ui,3.7.0.I20110602-0100,"org.eclipse.ui.file.save",1356143014662
deactivated,workbench,org.eclipse.ui.workbench,3.7.0.I20110519-0100,"",1356143015146
activated,workbench,org.eclipse.ui.workbench,3.7.0.I20110519-0100,"",1356143019358
executed,command,org.eclipse.ui,3.7.0.I20110602-0100,"org.eclipse.ui.edit.text.contentAssist.proposals",1356143028609
executed,command,org.eclipse.ui,3.7.0.I20110602-0100,"org.eclipse.ui.file.save",1356143031729
deactivated,workbench,org.eclipse.ui.workbench,3.7.0.I20110519-0100,"",1356143032166
activated,workbench,org.eclipse.ui.workbench,3.7.0.I20110519-0100,"",1356143035145
executed,command,org.eclipse.ui,3.7.0.I20110602-0100,"org.eclipse.ui.edit.text.contentAssist.proposals",1356143037766
executed,command,org.eclipse.ui,3.7.0.I20110602-0100,"org.eclipse.ui.file.save",1356143049762
deactivated,workbench,org.eclipse.ui.workbench,3.7.0.I20110519-0100,"",1356143050137
activated,workbench,org.eclipse.ui.workbench,3.7.0.I20110519-0100,"",1356143054115
executed,command,org.eclipse.ui,3.7.0.I20110602-0100,"org.eclipse.ui.edit.text.contentAssist.proposals",1356143056112
executed,command,org.eclipse.ui,3.7.0.I20110602-0100,"org.eclipse.ui.file.save",1356143064395
deactivated,workbench,org.eclipse.ui.workbench,3.7.0.I20110519-0100,"",1356143064894
activated,workbench,org.eclipse.ui.workbench,3.7.0.I20110519-0100,"",1356143067983
executed,command,org.eclipse.ui,3.7.0.I20110602-0100,"org.eclipse.ui.edit.text.contentAssist.proposals",1356143070230
executed,command,org.eclipse.ui,3.7.0.I20110602-0100,"org.eclipse.ui.file.save",1356143081664
deactivated,workbench,org.eclipse.ui.workbench,3.7.0.I20110519-0100,"",1356143082117
activated,workbench,org.eclipse.ui.workbench,3.7.0.I20110519-0100,"",1356143084004
executed,command,org.eclipse.ui,3.7.0.I20110602-0100,"org.eclipse.ui.edit.text.contentAssist.proposals",1356143086188
executed,command,org.eclipse.ui,3.7.0.I20110602-0100,"org.eclipse.ui.file.save",1356143103926
deactivated,workbench,org.eclipse.ui.workbench,3.7.0.I20110519-0100,"",1356143104347
activated,workbench,org.eclipse.ui.workbench,3.7.0.I20110519-0100,"",1356143109729
executed,command,org.eclipse.ui,3.7.0.I20110602-0100,"org.eclipse.ui.edit.text.contentAssist.proposals",1356143116718
executed,command,org.eclipse.ui,3.7.0.I20110602-0100,"org.eclipse.ui.edit.text.contentAssist.proposals",1356143142676
executed,command,org.eclipse.ui,3.7.0.I20110602-0100,"org.eclipse.ui.file.save",1356143145843
deactivated,workbench,org.eclipse.ui.workbench,3.7.0.I20110519-0100,"",1356143146217
activated,workbench,org.eclipse.ui.workbench,3.7.0.I20110519-0100,"",1356143155094
executed,command,org.eclipse.ui,3.7.0.I20110602-0100,"org.eclipse.ui.edit.text.contentAssist.proposals",1356143164750
executed,command,org.eclipse.ui,3.7.0.I20110602-0100,"org.eclipse.ui.file.save",1356143166373
deactivated,workbench,org.eclipse.ui.workbench,3.7.0.I20110519-0100,"",1356143166841
activated,workbench,org.eclipse.ui.workbench,3.7.0.I20110519-0100,"",1356143175655
executed,command,org.eclipse.ui,3.7.0.I20110602-0100,"org.eclipse.ui.edit.text.contentAssist.proposals",1356143181832
executed,command,org.eclipse.ui,3.7.0.I20110602-0100,"org.eclipse.ui.file.save",1356143188353
deactivated,workbench,org.eclipse.ui.workbench,3.7.0.I20110519-0100,"",1356143188821
activated,workbench,org.eclipse.ui.workbench,3.7.0.I20110519-0100,"",1356143194219
executed,command,org.eclipse.ui.workbench.texteditor,3.7.0.v20110505-0800,"org.eclipse.ui.edit.text.select.lineStart",1356143197510
executed,command,org.eclipse.ui,3.7.0.I20110602-0100,"org.eclipse.ui.edit.delete",1356143198930
executed,command,org.eclipse.ui,3.7.0.I20110602-0100,"org.eclipse.ui.file.save",1356143200739
executed,command,org.eclipse.ui,3.7.0.I20110602-0100,"org.eclipse.ui.edit.text.contentAssist.proposals",1356143205731
executed,command,org.eclipse.ui,3.7.0.I20110602-0100,"org.eclipse.ui.file.save",1356143210817
deactivated,workbench,org.eclipse.ui.workbench,3.7.0.I20110519-0100,"",1356143211269
activated,workbench,org.eclipse.ui.workbench,3.7.0.I20110519-0100,"",1356143216199
activated,editor,org.eclipse.jst.jsp.ui,1.1.601.v201108151912,"org.eclipse.jst.jsp.core.jspsource.source",1356143219194
activated,editor,org.eclipse.wst.css.ui,1.0.600.v201103022054,"org.eclipse.wst.css.core.csssource.source",1356143243015
executed,command,org.eclipse.ui.workbench.texteditor,3.7.0.v20110505-0800,"org.eclipse.ui.edit.text.goto.lineEnd",1356143249458
executed,command,org.eclipse.ui,3.7.0.I20110602-0100,"org.eclipse.ui.file.save",1356143257040
deactivated,workbench,org.eclipse.ui.workbench,3.7.0.I20110519-0100,"",1356143257383
activated,workbench,org.eclipse.ui.workbench,3.7.0.I20110519-0100,"",1356143262250
executed,command,org.eclipse.ui,3.7.0.I20110602-0100,"org.eclipse.ui.file.save",1356143266899
deactivated,workbench,org.eclipse.ui.workbench,3.7.0.I20110519-0100,"",1356143267258
activated,workbench,org.eclipse.ui.workbench,3.7.0.I20110519-0100,"",1356143270784
executed,command,org.eclipse.ui,3.7.0.I20110602-0100,"org.eclipse.ui.edit.text.contentAssist.proposals",1356143275947
executed,command,org.eclipse.ui,3.7.0.I20110602-0100,"org.eclipse.ui.file.save",1356143283591
deactivated,workbench,org.eclipse.ui.workbench,3.7.0.I20110519-0100,"",1356143283981
activated,workbench,org.eclipse.ui.workbench,3.7.0.I20110519-0100,"",1356143289753
executed,command,org.eclipse.ui.workbench.texteditor,3.7.0.v20110505-0800,"org.eclipse.ui.edit.text.select.lineStart",1356143296446
executed,command,org.eclipse.ui,3.7.0.I20110602-0100,"org.eclipse.ui.file.save",1356143298614
deactivated,workbench,org.eclipse.ui.workbench,3.7.0.I20110519-0100,"",1356143298988
activated,workbench,org.eclipse.ui.workbench,3.7.0.I20110519-0100,"",1356143302155
deactivated,workbench,org.eclipse.ui.workbench,3.7.0.I20110519-0100,"",1356143310439
activated,workbench,org.eclipse.ui.workbench,3.7.0.I20110519-0100,"",1356143318270
executed,command,org.eclipse.ui.workbench.texteditor,3.7.0.v20110505-0800,"org.eclipse.ui.edit.text.goto.lineStart",1356143326912
executed,command,org.eclipse.ui.workbench.texteditor,3.7.0.v20110505-0800,"org.eclipse.ui.edit.text.select.lineEnd",1356143329034
executed,command,org.eclipse.ui,3.7.0.I20110602-0100,"org.eclipse.ui.edit.copy",1356143330391
executed,command,org.eclipse.ui,3.7.0.I20110602-0100,"org.eclipse.ui.edit.paste",1356143333464
executed,command,org.eclipse.ui,3.7.0.I20110602-0100,"org.eclipse.ui.file.save",1356143346662
deactivated,workbench,org.eclipse.ui.workbench,3.7.0.I20110519-0100,"",1356143347021
activated,workbench,org.eclipse.ui.workbench,3.7.0.I20110519-0100,"",1356143348862
executed,command,org.eclipse.ui,3.7.0.I20110602-0100,"org.eclipse.ui.edit.delete",1356143351685
executed,command,org.eclipse.ui,3.7.0.I20110602-0100,"org.eclipse.ui.file.save",1356143352902
activated,editor,org.eclipse.jst.jsp.ui,1.1.601.v201108151912,"org.eclipse.jst.jsp.core.jspsource.source",1356143362200
executed,command,org.eclipse.ui.workbench.texteditor,3.7.0.v20110505-0800,"org.eclipse.ui.edit.text.goto.lineEnd",1356143368377
executed,command,org.eclipse.ui,3.7.0.I20110602-0100,"org.eclipse.ui.file.save",1356143391153
deactivated,workbench,org.eclipse.ui.workbench,3.7.0.I20110519-0100,"",1356143392074
activated,workbench,org.eclipse.ui.workbench,3.7.0.I20110519-0100,"",1356143396925
activated,editor,org.eclipse.wst.css.ui,1.0.600.v201103022054,"org.eclipse.wst.css.core.csssource.source",1356143399499
executed,command,org.eclipse.ui,3.7.0.I20110602-0100,"org.eclipse.ui.edit.text.contentAssist.proposals",1356143407596
executed,command,org.eclipse.ui,3.7.0.I20110602-0100,"org.eclipse.ui.edit.text.contentAssist.proposals",1356143412447
executed,command,org.eclipse.ui,3.7.0.I20110602-0100,"org.eclipse.ui.file.save",1356143416394
deactivated,workbench,org.eclipse.ui.workbench,3.7.0.I20110519-0100,"",1356143416769
activated,workbench,org.eclipse.ui.workbench,3.7.0.I20110519-0100,"",1356143418890
executed,command,org.eclipse.ui,3.7.0.I20110602-0100,"org.eclipse.ui.edit.text.contentAssist.proposals",1356143425505
executed,command,org.eclipse.ui,3.7.0.I20110602-0100,"org.eclipse.ui.edit.text.contentAssist.proposals",1356143430341
executed,command,org.eclipse.ui,3.7.0.I20110602-0100,"org.eclipse.ui.edit.text.contentAssist.proposals",1356143435551
executed,command,org.eclipse.ui,3.7.0.I20110602-0100,"org.eclipse.ui.file.save",1356143440184
deactivated,workbench,org.eclipse.ui.workbench,3.7.0.I20110519-0100,"",1356143440574
activated,workbench,org.eclipse.ui.workbench,3.7.0.I20110519-0100,"",1356143442587
executed,command,org.eclipse.ui,3.7.0.I20110602-0100,"org.eclipse.ui.edit.text.contentAssist.proposals",1356143448749
executed,command,org.eclipse.ui,3.7.0.I20110602-0100,"org.eclipse.ui.file.save",1356143454911
deactivated,workbench,org.eclipse.ui.workbench,3.7.0.I20110519-0100,"",1356143455316
activated,workbench,org.eclipse.ui.workbench,3.7.0.I20110519-0100,"",1356143476829
executed,command,org.eclipse.ui,3.7.0.I20110602-0100,"org.eclipse.ui.file.save",1356143481103
executed,command,org.eclipse.ui,3.7.0.I20110602-0100,"org.eclipse.ui.file.save",1356143507218
deactivated,workbench,org.eclipse.ui.workbench,3.7.0.I20110519-0100,"",1356143507654
activated,workbench,org.eclipse.ui.workbench,3.7.0.I20110519-0100,"",1356143513068
executed,command,org.eclipse.ui,3.7.0.I20110602-0100,"org.eclipse.ui.file.save",1356143529448
deactivated,workbench,org.eclipse.ui.workbench,3.7.0.I20110519-0100,"",1356143529884
activated,workbench,org.eclipse.ui.workbench,3.7.0.I20110519-0100,"",1356143532319
executed,command,org.eclipse.ui,3.7.0.I20110602-0100,"org.eclipse.ui.file.save",1356143535845
deactivated,workbench,org.eclipse.ui.workbench,3.7.0.I20110519-0100,"",1356143536671
activated,workbench,org.eclipse.ui.workbench,3.7.0.I20110519-0100,"",1356143542147
executed,command,org.eclipse.ui,3.7.0.I20110602-0100,"org.eclipse.ui.file.save",1356143552115
deactivated,workbench,org.eclipse.ui.workbench,3.7.0.I20110519-0100,"",1356143552661
activated,workbench,org.eclipse.ui.workbench,3.7.0.I20110519-0100,"",1356143557607
activated,editor,org.eclipse.jst.jsp.ui,1.1.601.v201108151912,"org.eclipse.jst.jsp.core.jspsource.source",1356143561007
executed,command,org.eclipse.ui.workbench.texteditor,3.7.0.v20110505-0800,"org.eclipse.ui.edit.text.goto.lineEnd",1356143570960
executed,command,org.eclipse.ui,3.7.0.I20110602-0100,"org.eclipse.ui.file.save",1356143574969
deactivated,workbench,org.eclipse.ui.workbench,3.7.0.I20110519-0100,"",1356143575391
activated,workbench,org.eclipse.ui.workbench,3.7.0.I20110519-0100,"",1356143584080
executed,command,org.eclipse.ui,3.7.0.I20110602-0100,"org.eclipse.ui.edit.text.contentAssist.proposals",1356143600382
executed,command,org.eclipse.ui,3.7.0.I20110602-0100,"org.eclipse.ui.file.save",1356143606372
deactivated,workbench,org.eclipse.ui.workbench,3.7.0.I20110519-0100,"",1356143606778
activated,workbench,org.eclipse.ui.workbench,3.7.0.I20110519-0100,"",1356143618213
executed,command,org.eclipse.ui.workbench.texteditor,3.7.0.v20110505-0800,"org.eclipse.ui.edit.text.goto.lineEnd",1356143634374
executed,command,org.eclipse.ui,3.7.0.I20110602-0100,"org.eclipse.ui.file.save",1356143645934
executed,command,org.eclipse.ui,3.7.0.I20110602-0100,"org.eclipse.ui.file.save",1356143663359
executed,command,org.eclipse.ui,3.7.0.I20110602-0100,"org.eclipse.ui.file.save",1356143674030
executed,command,org.eclipse.ui,3.7.0.I20110602-0100,"org.eclipse.ui.file.save",1356143759471
executed,command,org.eclipse.ui,3.7.0.I20110602-0100,"org.eclipse.ui.file.save",1356143781483
activated,editor,org.eclipse.wst.css.ui,1.0.600.v201103022054,"org.eclipse.wst.css.core.csssource.source",1356143784010
executed,command,org.eclipse.ui,3.7.0.I20110602-0100,"org.eclipse.ui.file.save",1356143820108
deactivated,workbench,org.eclipse.ui.workbench,3.7.0.I20110519-0100,"",1356143820748
activated,workbench,org.eclipse.ui.workbench,3.7.0.I20110519-0100,"",1356143828642
activated,editor,org.eclipse.jst.jsp.ui,1.1.601.v201108151912,"org.eclipse.jst.jsp.core.jspsource.source",1356143836582
executed,command,org.eclipse.ui,3.7.0.I20110602-0100,"org.eclipse.ui.file.save",1356143872697
executed,command,org.eclipse.ui,3.7.0.I20110602-0100,"org.eclipse.ui.edit.delete",1356143888235
executed,command,org.eclipse.ui,3.7.0.I20110602-0100,"org.eclipse.ui.edit.delete",1356143888671
executed,command,org.eclipse.ui,3.7.0.I20110602-0100,"org.eclipse.ui.edit.delete",1356143888905
executed,command,org.eclipse.ui,3.7.0.I20110602-0100,"org.eclipse.ui.edit.delete",1356143889093
executed,command,org.eclipse.ui,3.7.0.I20110602-0100,"org.eclipse.ui.edit.delete",1356143889311
executed,command,org.eclipse.ui,3.7.0.I20110602-0100,"org.eclipse.ui.file.save",1356143895707
activated,editor,org.eclipse.wst.css.ui,1.0.600.v201103022054,"org.eclipse.wst.css.core.csssource.source",1356143898702
executed,command,org.eclipse.ui,3.7.0.I20110602-0100,"org.eclipse.ui.file.save",1356143910979
executed,command,org.eclipse.ui,3.7.0.I20110602-0100,"org.eclipse.ui.file.save",1356143940588
deactivated,workbench,org.eclipse.ui.workbench,3.7.0.I20110519-0100,"",1356143941337
activated,workbench,org.eclipse.ui.workbench,3.7.0.I20110519-0100,"",1356143944582
executed,command,org.eclipse.ui,3.7.0.I20110602-0100,"org.eclipse.ui.file.save",1356143956968
deactivated,workbench,org.eclipse.ui.workbench,3.7.0.I20110519-0100,"",1356143957436
activated,workbench,org.eclipse.ui.workbench,3.7.0.I20110519-0100,"",1356143973442
executed,command,org.eclipse.ui,3.7.0.I20110602-0100,"org.eclipse.ui.file.save",1356143983473
deactivated,workbench,org.eclipse.ui.workbench,3.7.0.I20110519-0100,"",1356143983910
activated,workbench,org.eclipse.ui.workbench,3.7.0.I20110519-0100,"",1356143995266
deactivated,workbench,org.eclipse.ui.workbench,3.7.0.I20110519-0100,"",1356144001007
activated,workbench,org.eclipse.ui.workbench,3.7.0.I20110519-0100,"",1356144026466
executed,command,org.eclipse.ui.workbench.texteditor,3.7.0.v20110505-0800,"org.eclipse.ui.edit.text.select.lineStart",1356144034875
executed,command,org.eclipse.ui,3.7.0.I20110602-0100,"org.eclipse.ui.edit.delete",1356144035998
executed,command,org.eclipse.ui,3.7.0.I20110602-0100,"org.eclipse.ui.file.save",1356144037667
deactivated,workbench,org.eclipse.ui.workbench,3.7.0.I20110519-0100,"",1356144038088
activated,workbench,org.eclipse.ui.workbench,3.7.0.I20110519-0100,"",1356144044032
executed,command,org.eclipse.ui,3.7.0.I20110602-0100,"org.eclipse.ui.edit.text.contentAssist.proposals",1356144056996
executed,command,org.eclipse.ui,3.7.0.I20110602-0100,"org.eclipse.ui.file.save",1356144058603
deactivated,workbench,org.eclipse.ui.workbench,3.7.0.I20110519-0100,"",1356144059071
activated,workbench,org.eclipse.ui.workbench,3.7.0.I20110519-0100,"",1356144062378
executed,command,org.eclipse.ui,3.7.0.I20110602-0100,"org.eclipse.ui.file.save",1356144067027
deactivated,workbench,org.eclipse.ui.workbench,3.7.0.I20110519-0100,"",1356144067432
activated,workbench,org.eclipse.ui.workbench,3.7.0.I20110519-0100,"",1356144077728
executed,command,org.eclipse.ui.workbench.texteditor,3.7.0.v20110505-0800,"org.eclipse.ui.edit.text.goto.lineEnd",1356144081909
executed,command,org.eclipse.ui.workbench.texteditor,3.7.0.v20110505-0800,"org.eclipse.ui.edit.text.select.lineStart",1356144082346
executed,command,org.eclipse.ui,3.7.0.I20110602-0100,"org.eclipse.ui.file.save",1356144084811
deactivated,workbench,org.eclipse.ui.workbench,3.7.0.I20110519-0100,"",1356144085201
activated,workbench,org.eclipse.ui.workbench,3.7.0.I20110519-0100,"",1356144091363
executed,command,org.eclipse.ui,3.7.0.I20110602-0100,"org.eclipse.ui.edit.text.contentAssist.proposals",1356144103484
executed,command,org.eclipse.ui,3.7.0.I20110602-0100,"org.eclipse.ui.edit.text.contentAssist.proposals",1356144106666
executed,command,org.eclipse.ui,3.7.0.I20110602-0100,"org.eclipse.ui.file.save",1356144110878
deactivated,workbench,org.eclipse.ui.workbench,3.7.0.I20110519-0100,"",1356144111284
activated,workbench,org.eclipse.ui.workbench,3.7.0.I20110519-0100,"",1356144123171
activated,editor,org.eclipse.jst.jsp.ui,1.1.601.v201108151912,"org.eclipse.jst.jsp.core.jspsource.source",1356144129037
executed,command,org.eclipse.ui,3.7.0.I20110602-0100,"org.eclipse.ui.file.save",1356144148552
deactivated,workbench,org.eclipse.ui.workbench,3.7.0.I20110519-0100,"",1356144148895
activated,workbench,org.eclipse.ui.workbench,3.7.0.I20110519-0100,"",1356144166555
executed,command,org.eclipse.ui,3.7.0.I20110602-0100,"org.eclipse.ui.file.save",1356144197989
deactivated,workbench,org.eclipse.ui.workbench,3.7.0.I20110519-0100,"",1356144198332
activated,workbench,org.eclipse.ui.workbench,3.7.0.I20110519-0100,"",1356144201936
executed,command,org.eclipse.ui.workbench.texteditor,3.7.0.v20110505-0800,"org.eclipse.ui.edit.text.select.lineStart",1356144210952
executed,command,org.eclipse.ui,3.7.0.I20110602-0100,"org.eclipse.ui.edit.delete",1356144212325
executed,command,org.eclipse.ui,3.7.0.I20110602-0100,"org.eclipse.ui.file.save",1356144235741
deactivated,workbench,org.eclipse.ui.workbench,3.7.0.I20110519-0100,"",1356144236162
activated,workbench,org.eclipse.ui.workbench,3.7.0.I20110519-0100,"",1356144241762
activated,editor,org.eclipse.wst.css.ui,1.0.600.v201103022054,"org.eclipse.wst.css.core.csssource.source",1356144250888
executed,command,org.eclipse.ui,3.7.0.I20110602-0100,"org.eclipse.ui.file.save",1356144263680
deactivated,workbench,org.eclipse.ui.workbench,3.7.0.I20110519-0100,"",1356144264086
activated,workbench,org.eclipse.ui.workbench,3.7.0.I20110519-0100,"",1356144267658
executed,command,org.eclipse.ui.workbench.texteditor,3.7.0.v20110505-0800,"org.eclipse.ui.edit.text.select.lineStart",1356144269094
executed,command,org.eclipse.ui,3.7.0.I20110602-0100,"org.eclipse.ui.file.save",1356144279530
deactivated,workbench,org.eclipse.ui.workbench,3.7.0.I20110519-0100,"",1356144279936
