what,kind,bundleId,bundleVersion,description,time
activated,editor,org.eclipse.jst.jsp.ui,1.1.601.v201108151912,"org.eclipse.jst.jsp.core.jspsource.source",1356401131081
executed,command,org.eclipse.ui.workbench.texteditor,3.7.0.v20110505-0800,"org.eclipse.ui.edit.text.goto.lineEnd",1356401152812
executed,command,org.eclipse.ui,3.7.0.I20110602-0100,"org.eclipse.ui.edit.paste",1356401154106
executed,command,org.eclipse.ui,3.7.0.I20110602-0100,"org.eclipse.ui.file.save",1356401155869
deactivated,workbench,org.eclipse.ui.workbench,3.7.0.I20110519-0100,"",1356401156306
error,log,,,"Core exception while retrieving the content description",1356401157913
error,log,,,"Core exception while retrieving the content description",1356401157913
error,log,,,"Core exception while retrieving the content description",1356401157928
error,log,,,"Core exception while retrieving the content description",1356401157928
error,log,,,"Core exception while retrieving the content description",1356401157928
activated,workbench,org.eclipse.ui.workbench,3.7.0.I20110519-0100,"",1356401169739
executed,command,org.eclipse.ui,3.7.0.I20110602-0100,"org.eclipse.ui.edit.delete",1356401193139
executed,command,org.eclipse.ui,3.7.0.I20110602-0100,"org.eclipse.ui.file.save",1356401194574
deactivated,workbench,org.eclipse.ui.workbench,3.7.0.I20110519-0100,"",1356401195120
error,log,,,"Core exception while retrieving the content description",1356401196508
error,log,,,"Core exception while retrieving the content description",1356401196508
error,log,,,"Core exception while retrieving the content description",1356401196524
error,log,,,"Core exception while retrieving the content description",1356401196524
error,log,,,"Core exception while retrieving the content description",1356401196524
activated,workbench,org.eclipse.ui.workbench,3.7.0.I20110519-0100,"",1356401221844
executed,command,org.eclipse.ui,3.7.0.I20110602-0100,"org.eclipse.ui.file.save",1356401236320
deactivated,workbench,org.eclipse.ui.workbench,3.7.0.I20110519-0100,"",1356401236804
error,log,,,"Core exception while retrieving the content description",1356401238348
error,log,,,"Core exception while retrieving the content description",1356401238348
error,log,,,"Core exception while retrieving the content description",1356401238364
error,log,,,"Core exception while retrieving the content description",1356401238364
error,log,,,"Core exception while retrieving the content description",1356401238364
activated,workbench,org.eclipse.ui.workbench,3.7.0.I20110519-0100,"",1356401248692
deactivated,workbench,org.eclipse.ui.workbench,3.7.0.I20110519-0100,"",1356401260143
activated,workbench,org.eclipse.ui.workbench,3.7.0.I20110519-0100,"",1356401281468
executed,command,org.eclipse.ui,3.7.0.I20110602-0100,"org.eclipse.ui.edit.delete",1356401287053
executed,command,org.eclipse.ui,3.7.0.I20110602-0100,"org.eclipse.ui.file.save",1356401289627
error,log,,,"Core exception while retrieving the content description",1356401291624
error,log,,,"Core exception while retrieving the content description",1356401291624
error,log,,,"Core exception while retrieving the content description",1356401291639
error,log,,,"Core exception while retrieving the content description",1356401291639
error,log,,,"Core exception while retrieving the content description",1356401291639
activated,view,org.eclipse.ui.navigator.resources,3.4.300.I20110421-1800,"org.eclipse.ui.navigator.ProjectExplorer",1356402048412
activated,editor,org.eclipse.jst.jsp.ui,1.1.601.v201108151912,"org.eclipse.jst.jsp.core.jspsource.source",1356402067257
deactivated,workbench,org.eclipse.ui.workbench,3.7.0.I20110519-0100,"",1356402082919
activated,workbench,org.eclipse.ui.workbench,3.7.0.I20110519-0100,"",1356413325269
deactivated,workbench,org.eclipse.ui.workbench,3.7.0.I20110519-0100,"",1356413334744
activated,workbench,org.eclipse.ui.workbench,3.7.0.I20110519-0100,"",1356413370219
executed,command,org.eclipse.ui,3.7.0.I20110602-0100,"org.eclipse.ui.edit.text.contentAssist.proposals",1356413391494
executed,command,org.eclipse.ui,3.7.0.I20110602-0100,"org.eclipse.ui.edit.text.contentAssist.proposals",1356413400944
executed,command,org.eclipse.ui,3.7.0.I20110602-0100,"org.eclipse.ui.edit.text.contentAssist.proposals",1356413404234
executed,command,org.eclipse.ui,3.7.0.I20110602-0100,"org.eclipse.ui.edit.text.contentAssist.proposals",1356413407749
executed,command,org.eclipse.ui,3.7.0.I20110602-0100,"org.eclipse.ui.edit.text.contentAssist.proposals",1356413422259
executed,command,org.eclipse.ui,3.7.0.I20110602-0100,"org.eclipse.ui.edit.text.contentAssist.proposals",1356413432714
executed,command,org.eclipse.ui,3.7.0.I20110602-0100,"org.eclipse.ui.file.save",1356413441639
error,log,,,"Core exception while retrieving the content description",1356413443504
error,log,,,"Core exception while retrieving the content description",1356413443504
error,log,,,"Core exception while retrieving the content description",1356413443514
error,log,,,"Core exception while retrieving the content description",1356413443514
error,log,,,"Core exception while retrieving the content description",1356413443519
executed,command,org.eclipse.ui.workbench.texteditor,3.7.0.v20110505-0800,"org.eclipse.ui.edit.text.select.lineStart",1356413443979
executed,command,org.eclipse.ui,3.7.0.I20110602-0100,"org.eclipse.ui.edit.cut",1356413445169
executed,command,org.eclipse.ui,3.7.0.I20110602-0100,"org.eclipse.ui.file.save",1356413446899
activated,editor,org.eclipse.jst.jsp.ui,1.1.601.v201108151912,"org.eclipse.jst.jsp.core.jspsource.source",1356413447844
error,log,,,"Core exception while retrieving the content description",1356413448849
error,log,,,"Core exception while retrieving the content description",1356413448849
error,log,,,"Core exception while retrieving the content description",1356413448854
error,log,,,"Core exception while retrieving the content description",1356413448859
error,log,,,"Core exception while retrieving the content description",1356413448859
executed,command,org.eclipse.ui,3.7.0.I20110602-0100,"org.eclipse.ui.edit.paste",1356413452974
executed,command,org.eclipse.ui,3.7.0.I20110602-0100,"org.eclipse.ui.file.save",1356413454314
deactivated,workbench,org.eclipse.ui.workbench,3.7.0.I20110519-0100,"",1356413454979
error,log,,,"Core exception while retrieving the content description",1356413456354
error,log,,,"Core exception while retrieving the content description",1356413456354
error,log,,,"Core exception while retrieving the content description",1356413456364
error,log,,,"Core exception while retrieving the content description",1356413456364
error,log,,,"Core exception while retrieving the content description",1356413456369
activated,workbench,org.eclipse.ui.workbench,3.7.0.I20110519-0100,"",1356413464289
executed,command,org.eclipse.ui,3.7.0.I20110602-0100,"org.eclipse.ui.edit.text.contentAssist.proposals",1356413475989
executed,command,org.eclipse.ui,3.7.0.I20110602-0100,"org.eclipse.ui.file.save",1356413481710
deactivated,workbench,org.eclipse.ui.workbench,3.7.0.I20110519-0100,"",1356413482170
error,log,,,"Core exception while retrieving the content description",1356413483960
error,log,,,"Core exception while retrieving the content description",1356413483965
error,log,,,"Core exception while retrieving the content description",1356413483970
error,log,,,"Core exception while retrieving the content description",1356413483975
error,log,,,"Core exception while retrieving the content description",1356413483975
activated,workbench,org.eclipse.ui.workbench,3.7.0.I20110519-0100,"",1356413486205
executed,command,org.eclipse.ui,3.7.0.I20110602-0100,"org.eclipse.ui.edit.text.contentAssist.proposals",1356413496850
executed,command,org.eclipse.ui,3.7.0.I20110602-0100,"org.eclipse.ui.file.save",1356413510815
deactivated,workbench,org.eclipse.ui.workbench,3.7.0.I20110519-0100,"",1356413512125
error,log,,,"Core exception while retrieving the content description",1356413512965
error,log,,,"Core exception while retrieving the content description",1356413512965
error,log,,,"Core exception while retrieving the content description",1356413512975
error,log,,,"Core exception while retrieving the content description",1356413512980
error,log,,,"Core exception while retrieving the content description",1356413512980
activated,workbench,org.eclipse.ui.workbench,3.7.0.I20110519-0100,"",1356413525940
executed,command,org.eclipse.ui,3.7.0.I20110602-0100,"org.eclipse.ui.file.save",1356413546225
deactivated,workbench,org.eclipse.ui.workbench,3.7.0.I20110519-0100,"",1356413546785
error,log,,,"Core exception while retrieving the content description",1356413548375
error,log,,,"Core exception while retrieving the content description",1356413548375
error,log,,,"Core exception while retrieving the content description",1356413548385
error,log,,,"Core exception while retrieving the content description",1356413548385
error,log,,,"Core exception while retrieving the content description",1356413548390
activated,workbench,org.eclipse.ui.workbench,3.7.0.I20110519-0100,"",1356413558285
executed,command,org.eclipse.ui,3.7.0.I20110602-0100,"org.eclipse.ui.file.save",1356413570625
deactivated,workbench,org.eclipse.ui.workbench,3.7.0.I20110519-0100,"",1356413571180
error,log,,,"Core exception while retrieving the content description",1356413572775
error,log,,,"Core exception while retrieving the content description",1356413572780
error,log,,,"Core exception while retrieving the content description",1356413572785
error,log,,,"Core exception while retrieving the content description",1356413572790
error,log,,,"Core exception while retrieving the content description",1356413572795
activated,workbench,org.eclipse.ui.workbench,3.7.0.I20110519-0100,"",1356413574905
executed,command,org.eclipse.ui,3.7.0.I20110602-0100,"org.eclipse.ui.file.save",1356413582950
deactivated,workbench,org.eclipse.ui.workbench,3.7.0.I20110519-0100,"",1356413583670
error,log,,,"Core exception while retrieving the content description",1356413584945
error,log,,,"Core exception while retrieving the content description",1356413584950
error,log,,,"Core exception while retrieving the content description",1356413584955
error,log,,,"Core exception while retrieving the content description",1356413584960
error,log,,,"Core exception while retrieving the content description",1356413584960
activated,workbench,org.eclipse.ui.workbench,3.7.0.I20110519-0100,"",1356413586575
executed,command,org.eclipse.ui,3.7.0.I20110602-0100,"org.eclipse.ui.edit.text.contentAssist.proposals",1356413615630
executed,command,org.eclipse.ui,3.7.0.I20110602-0100,"org.eclipse.ui.edit.text.contentAssist.proposals",1356413633050
executed,command,org.eclipse.ui,3.7.0.I20110602-0100,"org.eclipse.ui.file.save",1356413640830
deactivated,workbench,org.eclipse.ui.workbench,3.7.0.I20110519-0100,"",1356413642130
error,log,,,"Core exception while retrieving the content description",1356413642970
error,log,,,"Core exception while retrieving the content description",1356413642975
error,log,,,"Core exception while retrieving the content description",1356413642980
error,log,,,"Core exception while retrieving the content description",1356413642985
error,log,,,"Core exception while retrieving the content description",1356413642985
activated,workbench,org.eclipse.ui.workbench,3.7.0.I20110519-0100,"",1356413648900
executed,command,org.eclipse.ui,3.7.0.I20110602-0100,"org.eclipse.ui.file.save",1356413659905
deactivated,workbench,org.eclipse.ui.workbench,3.7.0.I20110519-0100,"",1356413660235
error,log,,,"Core exception while retrieving the content description",1356413661690
error,log,,,"Core exception while retrieving the content description",1356413661695
error,log,,,"Core exception while retrieving the content description",1356413661705
error,log,,,"Core exception while retrieving the content description",1356413661705
error,log,,,"Core exception while retrieving the content description",1356413661710
activated,workbench,org.eclipse.ui.workbench,3.7.0.I20110519-0100,"",1356413662580
executed,command,org.eclipse.ui.workbench.texteditor,3.7.0.v20110505-0800,"org.eclipse.ui.edit.text.goto.lineStart",1356413669060
executed,command,org.eclipse.ui,3.7.0.I20110602-0100,"org.eclipse.ui.edit.delete",1356413671230
executed,command,org.eclipse.ui.workbench.texteditor,3.7.0.v20110505-0800,"org.eclipse.ui.edit.text.goto.lineEnd",1356413672860
executed,command,org.eclipse.ui,3.7.0.I20110602-0100,"org.eclipse.ui.file.save",1356413688155
error,log,,,"Core exception while retrieving the content description",1356413690315
error,log,,,"Core exception while retrieving the content description",1356413690320
error,log,,,"Core exception while retrieving the content description",1356413690325
error,log,,,"Core exception while retrieving the content description",1356413690330
error,log,,,"Core exception while retrieving the content description",1356413690330
executed,command,org.eclipse.ui,3.7.0.I20110602-0100,"org.eclipse.ui.edit.copy",1356413697753
activated,view,org.eclipse.ui.navigator.resources,3.4.300.I20110421-1800,"org.eclipse.ui.navigator.ProjectExplorer",1356413701123
opened,editor,org.eclipse.wst.css.ui,1.0.600.v201103022054,"org.eclipse.wst.css.core.csssource.source",1356413707808
activated,editor,org.eclipse.wst.css.ui,1.0.600.v201103022054,"org.eclipse.wst.css.core.csssource.source",1356413707943
executed,command,org.eclipse.ui,3.7.0.I20110602-0100,"org.eclipse.ui.edit.paste",1356413718253
executed,command,org.eclipse.ui,3.7.0.I20110602-0100,"org.eclipse.ui.edit.copy",1356413749303
executed,command,org.eclipse.ui,3.7.0.I20110602-0100,"org.eclipse.ui.edit.paste",1356413750893
executed,command,org.eclipse.ui,3.7.0.I20110602-0100,"org.eclipse.ui.file.save",1356413768338
deactivated,workbench,org.eclipse.ui.workbench,3.7.0.I20110519-0100,"",1356413769328
error,log,,,"Core exception while retrieving the content description",1356413770288
error,log,,,"Core exception while retrieving the content description",1356413770288
error,log,,,"Core exception while retrieving the content description",1356413770298
error,log,,,"Core exception while retrieving the content description",1356413770303
error,log,,,"Core exception while retrieving the content description",1356413770308
activated,workbench,org.eclipse.ui.workbench,3.7.0.I20110519-0100,"",1356413778983
executed,command,org.eclipse.ui,3.7.0.I20110602-0100,"org.eclipse.ui.file.save",1356413784683
deactivated,workbench,org.eclipse.ui.workbench,3.7.0.I20110519-0100,"",1356413785273
error,log,,,"Core exception while retrieving the content description",1356413786778
error,log,,,"Core exception while retrieving the content description",1356413786778
error,log,,,"Core exception while retrieving the content description",1356413786788
error,log,,,"Core exception while retrieving the content description",1356413786793
error,log,,,"Core exception while retrieving the content description",1356413786798
activated,workbench,org.eclipse.ui.workbench,3.7.0.I20110519-0100,"",1356413788678
executed,command,org.eclipse.ui,3.7.0.I20110602-0100,"org.eclipse.ui.edit.text.contentAssist.proposals",1356413794888
executed,command,org.eclipse.ui,3.7.0.I20110602-0100,"org.eclipse.ui.file.save",1356413799258
deactivated,workbench,org.eclipse.ui.workbench,3.7.0.I20110519-0100,"",1356413799688
error,log,,,"Core exception while retrieving the content description",1356413801193
error,log,,,"Core exception while retrieving the content description",1356413801198
error,log,,,"Core exception while retrieving the content description",1356413801208
error,log,,,"Core exception while retrieving the content description",1356413801208
error,log,,,"Core exception while retrieving the content description",1356413801213
activated,workbench,org.eclipse.ui.workbench,3.7.0.I20110519-0100,"",1356413806818
executed,command,org.eclipse.ui,3.7.0.I20110602-0100,"org.eclipse.ui.file.save",1356413812928
deactivated,workbench,org.eclipse.ui.workbench,3.7.0.I20110519-0100,"",1356413813353
error,log,,,"Core exception while retrieving the content description",1356413814898
error,log,,,"Core exception while retrieving the content description",1356413814898
error,log,,,"Core exception while retrieving the content description",1356413814913
error,log,,,"Core exception while retrieving the content description",1356413814918
error,log,,,"Core exception while retrieving the content description",1356413814918
activated,workbench,org.eclipse.ui.workbench,3.7.0.I20110519-0100,"",1356413858136
deactivated,workbench,org.eclipse.ui.workbench,3.7.0.I20110519-0100,"",1356413863856
activated,workbench,org.eclipse.ui.workbench,3.7.0.I20110519-0100,"",1356413864046
executed,command,org.eclipse.ui,3.7.0.I20110602-0100,"org.eclipse.ui.edit.paste",1356413865756
executed,command,org.eclipse.ui,3.7.0.I20110602-0100,"org.eclipse.ui.file.save",1356413869391
deactivated,workbench,org.eclipse.ui.workbench,3.7.0.I20110519-0100,"",1356413870041
error,log,,,"Core exception while retrieving the content description",1356413871331
error,log,,,"Core exception while retrieving the content description",1356413871336
error,log,,,"Core exception while retrieving the content description",1356413871341
error,log,,,"Core exception while retrieving the content description",1356413871346
error,log,,,"Core exception while retrieving the content description",1356413871346
activated,workbench,org.eclipse.ui.workbench,3.7.0.I20110519-0100,"",1356413913666
executed,command,org.eclipse.ui,3.7.0.I20110602-0100,"org.eclipse.ui.edit.paste",1356413916291
executed,command,org.eclipse.ui,3.7.0.I20110602-0100,"org.eclipse.ui.file.save",1356413917206
deactivated,workbench,org.eclipse.ui.workbench,3.7.0.I20110519-0100,"",1356413917776
error,log,,,"Core exception while retrieving the content description",1356413919176
error,log,,,"Core exception while retrieving the content description",1356413919176
error,log,,,"Core exception while retrieving the content description",1356413919186
error,log,,,"Core exception while retrieving the content description",1356413919191
error,log,,,"Core exception while retrieving the content description",1356413919191
activated,workbench,org.eclipse.ui.workbench,3.7.0.I20110519-0100,"",1356413975276
activated,editor,org.eclipse.jst.jsp.ui,1.1.601.v201108151912,"org.eclipse.jst.jsp.core.jspsource.source",1356413984071
activated,editor,org.eclipse.jst.jsp.ui,1.1.601.v201108151912,"org.eclipse.jst.jsp.core.jspsource.source",1356413992776
activated,editor,org.eclipse.jst.jsp.ui,1.1.601.v201108151912,"org.eclipse.jst.jsp.core.jspsource.source",1356413993541
executed,command,org.eclipse.ui,3.7.0.I20110602-0100,"org.eclipse.ui.edit.cut",1356414003801
executed,command,org.eclipse.ui,3.7.0.I20110602-0100,"org.eclipse.ui.edit.paste",1356414008381
executed,command,org.eclipse.ui,3.7.0.I20110602-0100,"org.eclipse.ui.file.save",1356414009536
deactivated,workbench,org.eclipse.ui.workbench,3.7.0.I20110519-0100,"",1356414009966
error,log,,,"Core exception while retrieving the content description",1356414011376
error,log,,,"Core exception while retrieving the content description",1356414011381
error,log,,,"Core exception while retrieving the content description",1356414011391
error,log,,,"Core exception while retrieving the content description",1356414011391
error,log,,,"Core exception while retrieving the content description",1356414011396
activated,workbench,org.eclipse.ui.workbench,3.7.0.I20110519-0100,"",1356414015281
activated,editor,org.eclipse.wst.css.ui,1.0.600.v201103022054,"org.eclipse.wst.css.core.csssource.source",1356414022361
executed,command,org.eclipse.ui,3.7.0.I20110602-0100,"org.eclipse.ui.edit.text.contentAssist.proposals",1356414041826
executed,command,org.eclipse.ui,3.7.0.I20110602-0100,"org.eclipse.ui.file.save",1356414044891
error,log,,,"Core exception while retrieving the content description",1356414046826
error,log,,,"Core exception while retrieving the content description",1356414046831
error,log,,,"Core exception while retrieving the content description",1356414046841
error,log,,,"Core exception while retrieving the content description",1356414046841
error,log,,,"Core exception while retrieving the content description",1356414046846
deactivated,workbench,org.eclipse.ui.workbench,3.7.0.I20110519-0100,"",1356414049531
activated,workbench,org.eclipse.ui.workbench,3.7.0.I20110519-0100,"",1356414054356
activated,editor,org.eclipse.jst.jsp.ui,1.1.601.v201108151912,"org.eclipse.jst.jsp.core.jspsource.source",1356414059921
activated,editor,org.eclipse.jst.jsp.ui,1.1.601.v201108151912,"org.eclipse.jst.jsp.core.jspsource.source",1356414061391
executed,command,org.eclipse.ui,3.7.0.I20110602-0100,"org.eclipse.ui.file.save",1356414067136
deactivated,workbench,org.eclipse.ui.workbench,3.7.0.I20110519-0100,"",1356414067591
error,log,,,"Core exception while retrieving the content description",1356414069431
error,log,,,"Core exception while retrieving the content description",1356414069436
error,log,,,"Core exception while retrieving the content description",1356414069446
error,log,,,"Core exception while retrieving the content description",1356414069451
error,log,,,"Core exception while retrieving the content description",1356414069456
activated,workbench,org.eclipse.ui.workbench,3.7.0.I20110519-0100,"",1356414078516
activated,editor,org.eclipse.wst.css.ui,1.0.600.v201103022054,"org.eclipse.wst.css.core.csssource.source",1356414081261
executed,command,org.eclipse.ui,3.7.0.I20110602-0100,"org.eclipse.ui.edit.text.contentAssist.proposals",1356414089246
executed,command,org.eclipse.ui,3.7.0.I20110602-0100,"org.eclipse.ui.edit.text.contentAssist.proposals",1356414093771
executed,command,org.eclipse.ui,3.7.0.I20110602-0100,"org.eclipse.ui.file.save",1356414095226
executed,command,org.eclipse.ui,3.7.0.I20110602-0100,"org.eclipse.ui.edit.text.contentAssist.proposals",1356414096666
error,log,,,"Core exception while retrieving the content description",1356414097151
error,log,,,"Core exception while retrieving the content description",1356414097151
error,log,,,"Core exception while retrieving the content description",1356414097161
error,log,,,"Core exception while retrieving the content description",1356414097161
error,log,,,"Core exception while retrieving the content description",1356414097166
executed,command,org.eclipse.ui,3.7.0.I20110602-0100,"org.eclipse.ui.file.save",1356414098751
deactivated,workbench,org.eclipse.ui.workbench,3.7.0.I20110519-0100,"",1356414099141
error,log,,,"Core exception while retrieving the content description",1356414100781
error,log,,,"Core exception while retrieving the content description",1356414100786
error,log,,,"Core exception while retrieving the content description",1356414100796
error,log,,,"Core exception while retrieving the content description",1356414100796
error,log,,,"Core exception while retrieving the content description",1356414100801
activated,workbench,org.eclipse.ui.workbench,3.7.0.I20110519-0100,"",1356414104436
executed,command,org.eclipse.ui.workbench.texteditor,3.7.0.v20110505-0800,"org.eclipse.ui.edit.text.select.lineStart",1356414106676
executed,command,org.eclipse.ui,3.7.0.I20110602-0100,"org.eclipse.ui.edit.cut",1356414107996
executed,command,org.eclipse.ui,3.7.0.I20110602-0100,"org.eclipse.ui.file.save",1356414113536
deactivated,workbench,org.eclipse.ui.workbench,3.7.0.I20110519-0100,"",1356414113941
error,log,,,"Core exception while retrieving the content description",1356414115586
error,log,,,"Core exception while retrieving the content description",1356414115591
error,log,,,"Core exception while retrieving the content description",1356414115601
error,log,,,"Core exception while retrieving the content description",1356414115601
error,log,,,"Core exception while retrieving the content description",1356414115606
activated,workbench,org.eclipse.ui.workbench,3.7.0.I20110519-0100,"",1356419814361
executed,command,org.eclipse.ui,3.7.0.I20110602-0100,"org.eclipse.ui.edit.text.contentAssist.proposals",1356419827506
executed,command,org.eclipse.ui,3.7.0.I20110602-0100,"org.eclipse.ui.edit.text.contentAssist.proposals",1356419830381
executed,command,org.eclipse.ui,3.7.0.I20110602-0100,"org.eclipse.ui.file.save",1356419833811
deactivated,workbench,org.eclipse.ui.workbench,3.7.0.I20110519-0100,"",1356419834371
error,log,,,"Core exception while retrieving the content description",1356419835671
error,log,,,"Core exception while retrieving the content description",1356419835671
error,log,,,"Core exception while retrieving the content description",1356419835676
error,log,,,"Core exception while retrieving the content description",1356419835676
error,log,,,"Core exception while retrieving the content description",1356419835676
activated,workbench,org.eclipse.ui.workbench,3.7.0.I20110519-0100,"",1356419884611
deactivated,workbench,org.eclipse.ui.workbench,3.7.0.I20110519-0100,"",1356419888761
activated,workbench,org.eclipse.ui.workbench,3.7.0.I20110519-0100,"",1356419915529
activated,view,org.eclipse.ui.navigator.resources,3.4.300.I20110421-1800,"org.eclipse.ui.navigator.ProjectExplorer",1356419924049
opened,editor,org.eclipse.jst.jsp.ui,1.1.601.v201108151912,"org.eclipse.jst.jsp.core.jspsource.source",1356419930269
activated,editor,org.eclipse.jst.jsp.ui,1.1.601.v201108151912,"org.eclipse.jst.jsp.core.jspsource.source",1356419930409
activated,view,org.eclipse.ui.navigator.resources,3.4.300.I20110421-1800,"org.eclipse.ui.navigator.ProjectExplorer",1356419945514
opened,editor,org.eclipse.jst.jsp.ui,1.1.601.v201108151912,"org.eclipse.jst.jsp.core.jspsource.source",1356419945874
activated,editor,org.eclipse.jst.jsp.ui,1.1.601.v201108151912,"org.eclipse.jst.jsp.core.jspsource.source",1356419946004
deactivated,workbench,org.eclipse.ui.workbench,3.7.0.I20110519-0100,"",1356419970914
activated,workbench,org.eclipse.ui.workbench,3.7.0.I20110519-0100,"",1356419972809
deactivated,workbench,org.eclipse.ui.workbench,3.7.0.I20110519-0100,"",1356419973909
activated,workbench,org.eclipse.ui.workbench,3.7.0.I20110519-0100,"",1356419976249
executed,command,org.eclipse.ui,3.7.0.I20110602-0100,"org.eclipse.ui.file.save",1356419981199
deactivated,workbench,org.eclipse.ui.workbench,3.7.0.I20110519-0100,"",1356419981714
error,log,,,"Core exception while retrieving the content description",1356419983179
error,log,,,"Core exception while retrieving the content description",1356419983179
error,log,,,"Core exception while retrieving the content description",1356419983189
error,log,,,"Core exception while retrieving the content description",1356419983194
error,log,,,"Core exception while retrieving the content description",1356419983199
activated,workbench,org.eclipse.ui.workbench,3.7.0.I20110519-0100,"",1356419997934
executed,command,org.eclipse.ui,3.7.0.I20110602-0100,"org.eclipse.ui.file.save",1356420003729
deactivated,workbench,org.eclipse.ui.workbench,3.7.0.I20110519-0100,"",1356420004079
error,log,,,"Core exception while retrieving the content description",1356420005794
error,log,,,"Core exception while retrieving the content description",1356420005794
error,log,,,"Core exception while retrieving the content description",1356420005799
error,log,,,"Core exception while retrieving the content description",1356420005804
error,log,,,"Core exception while retrieving the content description",1356420005849
