what,kind,bundleId,bundleVersion,description,time
started,bundle,org.eclipse.jem.workbench,2.0.400.v201104251400,"org.eclipse.jem.workbench",1355328449692
started,bundle,org.eclipse.jface,3.7.0.I20110522-1430,"org.eclipse.jface",1355328449692
started,bundle,org.eclipse.jpt.common.core,1.0.1.v201108080010,"org.eclipse.jpt.common.core",1355328449702
started,bundle,org.eclipse.jpt.jpa.core,3.0.1.v201109073010,"org.eclipse.jpt.jpa.core",1355328449732
started,bundle,org.eclipse.jsch.core,1.1.300.I20110514-0800,"org.eclipse.jsch.core",1355328449732
started,bundle,org.eclipse.jst.common.frameworks,1.1.500.v201104081500,"org.eclipse.jst.common.frameworks",1355328449742
started,bundle,org.eclipse.jst.common.project.facet.core,1.4.200.v201103170302,"org.eclipse.jst.common.project.facet.core",1355328449742
started,bundle,org.eclipse.jst.j2ee,1.1.501.v201108231845,"org.eclipse.jst.j2ee",1355328449742
started,bundle,org.eclipse.jst.j2ee.core,1.2.101.v201108110300,"org.eclipse.jst.j2ee.core",1355328449752
started,bundle,org.eclipse.jst.j2ee.navigator.ui,1.1.501.v201107261503,"org.eclipse.jst.j2ee.navigator.ui",1355328449782
started,bundle,org.eclipse.jst.j2ee.ui,1.1.501.v201108231700,"org.eclipse.jst.j2ee.ui",1355328449812
started,bundle,org.eclipse.jst.j2ee.web,1.1.501.v201108231500,"org.eclipse.jst.j2ee.web",1355328449832
started,bundle,org.eclipse.jst.j2ee.webservice,1.1.400.v201004110600,"org.eclipse.jst.j2ee.webservice",1355328449832
started,bundle,org.eclipse.jst.j2ee.webservice.ui,1.1.500.v201105122000,"org.eclipse.jst.j2ee.webservice.ui",1355328449832
started,bundle,org.eclipse.jst.jee.ui,1.0.400.v201105122000,"org.eclipse.jst.jee.ui",1355328449832
started,bundle,org.eclipse.jst.server.core,1.2.202.v20110419,"org.eclipse.jst.server.core",1355328449842
started,bundle,org.eclipse.jst.ws.jaxrs.core,1.0.301.v201108240656,"org.eclipse.jst.ws.jaxrs.core",1355328449842
started,bundle,org.eclipse.jst.ws.jaxws.utils,1.0.0.v201004171919,"org.eclipse.jst.ws.jaxws.utils",1355328449842
started,bundle,org.eclipse.mylyn.bugzilla.core,3.6.2.v20110903-0100,"org.eclipse.mylyn.bugzilla.core",1355328449842
started,bundle,org.eclipse.mylyn.bugzilla.ui,3.6.0.v20110608-1400,"org.eclipse.mylyn.bugzilla.ui",1355328449842
started,bundle,org.eclipse.mylyn.commons.identity,0.8.0.v20110608-1400,"org.eclipse.mylyn.commons.identity",1355328449842
started,bundle,org.eclipse.mylyn.commons.net,3.6.0.v20110608-1400,"org.eclipse.mylyn.commons.net",1355328449842
started,bundle,org.eclipse.mylyn.commons.ui,3.6.1.v20110720-0100,"org.eclipse.mylyn.commons.ui",1355328449852
started,bundle,org.eclipse.mylyn.context.core,3.6.1.v20110720-0100,"org.eclipse.mylyn.context.core",1355328449852
started,bundle,org.eclipse.mylyn.context.ui,3.6.0.v20110608-1400,"org.eclipse.mylyn.context.ui",1355328449902
started,bundle,org.eclipse.mylyn.monitor.ui,3.6.0.v20110608-1400,"org.eclipse.mylyn.monitor.ui",1355328449902
started,bundle,org.eclipse.mylyn.tasks.ui,3.6.2.v20110826-0100,"org.eclipse.mylyn.tasks.ui",1355328449952
started,bundle,org.eclipse.mylyn.team.ui,3.6.1.v20110825-0100,"org.eclipse.mylyn.team.ui",1355328449952
started,bundle,org.eclipse.search,3.7.0.v20110505-0800,"org.eclipse.search",1355328449972
started,bundle,org.eclipse.team.core,3.6.0.I20110525-0800,"org.eclipse.team.core",1355328449982
started,bundle,org.eclipse.team.cvs.core,3.3.400.I20110510-0800,"org.eclipse.team.cvs.core",1355328449982
started,bundle,org.eclipse.team.ui,3.6.100.I20110525-0800,"org.eclipse.team.ui",1355328450002
started,bundle,org.eclipse.ui,3.7.0.I20110602-0100,"org.eclipse.ui",1355328450002
started,bundle,org.eclipse.ui.console,3.5.100.v20110511,"org.eclipse.ui.console",1355328450002
started,bundle,org.eclipse.ui.editors,3.7.0.v20110517-0800,"org.eclipse.ui.editors",1355328450012
started,bundle,org.eclipse.ui.forms,3.5.100.v20110425,"org.eclipse.ui.forms",1355328450012
started,bundle,org.eclipse.ui.ide,3.7.0.v20110809-1737,"org.eclipse.ui.ide",1355328450042
started,bundle,org.eclipse.ui.navigator,3.5.100.v20110809-2227,"org.eclipse.ui.navigator",1355328450042
started,bundle,org.eclipse.ui.navigator.resources,3.4.300.I20110421-1800,"org.eclipse.ui.navigator.resources",1355328450042
started,bundle,org.eclipse.ui.net,1.2.100.I20110511-0800,"org.eclipse.ui.net",1355328450042
started,bundle,org.eclipse.ui.views,3.6.0.I20110412-0800,"org.eclipse.ui.views",1355328450042
started,bundle,org.eclipse.ui.workbench,3.7.0.I20110519-0100,"org.eclipse.ui.workbench",1355328450052
started,bundle,org.eclipse.ui.workbench.texteditor,3.7.0.v20110505-0800,"org.eclipse.ui.workbench.texteditor",1355328450052
started,bundle,org.eclipse.update.configurator,3.3.100.v20100512,"org.eclipse.update.configurator",1355328450052
started,bundle,org.eclipse.update.core,3.2.500.v20110330,"org.eclipse.update.core",1355328450082
started,bundle,org.eclipse.update.scheduler,3.2.300.v20100512,"org.eclipse.update.scheduler",1355328450082
started,bundle,org.eclipse.wst.common.core,1.2.0.v200908252030,"org.eclipse.wst.common.core",1355328450082
started,bundle,org.eclipse.wst.common.emf,1.2.100.v201101101900,"org.eclipse.wst.common.emf",1355328450082
started,bundle,org.eclipse.wst.common.emfworkbench.integration,1.2.101.v201107140600,"org.eclipse.wst.common.emfworkbench.integration",1355328450082
started,bundle,org.eclipse.wst.common.frameworks,1.2.101.v201107192200,"org.eclipse.wst.common.frameworks",1355328450092
started,bundle,org.eclipse.wst.common.frameworks.ui,1.2.100.v201105122000,"org.eclipse.wst.common.frameworks.ui",1355328450092
started,bundle,org.eclipse.wst.common.modulecore,1.2.101.v201108231700,"org.eclipse.wst.common.modulecore",1355328450092
started,bundle,org.eclipse.wst.common.project.facet.core,1.4.200.v201103170332,"org.eclipse.wst.common.project.facet.core",1355328450092
started,bundle,org.eclipse.wst.common.ui,1.1.500.v200911190730,"org.eclipse.wst.common.ui",1355328450092
started,bundle,org.eclipse.wst.jsdt.core,1.1.101.v201108151912,"org.eclipse.wst.jsdt.core",1355328450102
started,bundle,org.eclipse.wst.jsdt.manipulation,1.0.300.v201104272153,"org.eclipse.wst.jsdt.manipulation",1355328450102
started,bundle,org.eclipse.wst.jsdt.ui,1.1.101.v201108151912,"org.eclipse.wst.jsdt.ui",1355328450112
started,bundle,org.eclipse.wst.server.core,1.1.303.v20110816_1717,"org.eclipse.wst.server.core",1355328450162
started,bundle,org.eclipse.wst.server.ui,1.1.306.v20110823_1704,"org.eclipse.wst.server.ui",1355328450162
started,bundle,org.eclipse.wst.validation,1.2.302.v201107140600,"org.eclipse.wst.validation",1355328450172
started,bundle,org.eclipse.wst.web,1.1.500.v201104251400,"org.eclipse.wst.web",1355328450172
started,bundle,org.eclipse.wst.xml.core,1.1.601.v201108302147,"org.eclipse.wst.xml.core",1355328450172
started,bundle,oracle.eclipse.tools.glassfish,4.2.1.201201241947,"oracle.eclipse.tools.glassfish",1355328450182
os,sysinfo,,,"win32",1355328450182
arch,sysinfo,,,"x86",1355328450182
ws,sysinfo,,,"win32",1355328450182
locale,sysinfo,,,"en_US",1355328450182
processors,sysinfo,,,"4",1355328450182
java.runtime.name,sysinfo,,,"Java(TM) SE Runtime Environment",1355328450182
java.runtime.version,sysinfo,,,"1.6.0_37-b06",1355328450182
java.specification.name,sysinfo,,,"Java Platform API Specification",1355328450182
java.specification.vendor,sysinfo,,,"Sun Microsystems Inc.",1355328450182
java.specification.version,sysinfo,,,"1.6",1355328450182
java.vendor,sysinfo,,,"Sun Microsystems Inc.",1355328450182
java.version,sysinfo,,,"1.6.0_37",1355328450182
java.vm.info,sysinfo,,,"mixed mode, sharing",1355328450182
java.vm.name,sysinfo,,,"Java HotSpot(TM) Client VM",1355328450182
java.vm.specification.name,sysinfo,,,"Java Virtual Machine Specification",1355328450182
java.vm.specification.vendor,sysinfo,,,"Sun Microsystems Inc.",1355328450182
java.vm.specification.version,sysinfo,,,"1.0",1355328450182
java.vm.vendor,sysinfo,,,"Sun Microsystems Inc.",1355328450182
java.vm.version,sysinfo,,,"20.12-b01",1355328450182
started,bundle,org.eclipse.jst.server.tomcat.core,1.1.300.v20110427,"org.eclipse.jst.server.tomcat.core",1355328450672
started,bundle,org.eclipse.epp.usagedata.ui,1.3.1.R201106061540,"org.eclipse.epp.usagedata.ui",1355328451292
deactivated,workbench,org.eclipse.ui.workbench,3.7.0.I20110519-0100,"",1355328453042
started,bundle,org.eclipse.jdt.apt.core,3.3.500.v20110420-1015,"org.eclipse.jdt.apt.core",1355328456184
started,bundle,org.eclipse.jdt.apt.pluggable.core,1.0.400.v20110305-1450,"org.eclipse.jdt.apt.pluggable.core",1355328456224
started,bundle,org.eclipse.wst.dtd.core,1.1.501.v201107252021,"org.eclipse.wst.dtd.core",1355328459574
started,bundle,org.eclipse.jst.jee,1.0.401.v201105122000,"org.eclipse.jst.jee",1355328459664
started,bundle,org.eclipse.wst.sse.ui,1.3.1.v201108191312,"org.eclipse.wst.sse.ui",1355328459734
started,bundle,org.eclipse.wst.html.ui,1.0.601.v201108152113,"org.eclipse.wst.html.ui",1355328459734
started,bundle,org.eclipse.wst.sse.core,1.1.601.v201108151912,"org.eclipse.wst.sse.core",1355328459864
started,bundle,org.eclipse.jst.jsf.common,1.2.3.v201104061039,"org.eclipse.jst.jsf.common",1355328460234
started,bundle,org.eclipse.jst.jsf.core,1.3.105.v201108261005,"org.eclipse.jst.jsf.core",1355328460294
started,bundle,org.eclipse.jst.jsp.core,1.2.401.v201108302147,"org.eclipse.jst.jsp.core",1355328460554
started,bundle,org.eclipse.wst.wsdl.validation,1.1.502.v201104071820,"org.eclipse.wst.wsdl.validation",1355328461054
started,bundle,org.eclipse.wst.xsd.core,1.1.600.v201104070312,"org.eclipse.wst.xsd.core",1355328461114
started,bundle,org.eclipse.wst.xsl.core,1.1.100.v201102270516,"org.eclipse.wst.xsl.core",1355328461194
activated,workbench,org.eclipse.ui.workbench,3.7.0.I20110519-0100,"",1355328466844
activated,view,org.eclipse.ui.navigator.resources,3.4.300.I20110421-1800,"org.eclipse.ui.navigator.ProjectExplorer",1355328469214
started,bundle,org.eclipse.jst.ws.jaxws.dom.integration,1.0.100.v201101252155,"org.eclipse.jst.ws.jaxws.dom.integration",1355328470704
started,bundle,org.eclipse.jst.ws.jaxws.dom.ui,1.0.0.v201004171919,"org.eclipse.jst.ws.jaxws.dom.ui",1355328470724
started,bundle,org.eclipse.jst.servlet.ui,1.1.501.v201108220630,"org.eclipse.jst.servlet.ui",1355328470884
started,bundle,org.eclipse.ltk.core.refactoring,3.5.201.r371_v20110824-0800,"org.eclipse.ltk.core.refactoring",1355328480094
started,bundle,org.eclipse.ltk.ui.refactoring,3.6.0.v20110505-0800,"org.eclipse.ltk.ui.refactoring",1355328483174
started,bundle,org.eclipse.compare.core,3.5.200.I20110208-0800,"org.eclipse.compare.core",1355328483594
opened,editor,org.eclipse.jdt.ui,3.7.1.r371_v20110824-0800,"org.eclipse.jdt.ui.CompilationUnitEditor",1355328483744
activated,editor,org.eclipse.jdt.ui,3.7.1.r371_v20110824-0800,"org.eclipse.jdt.ui.CompilationUnitEditor",1355328484744
started,bundle,org.eclipse.core.variables,3.2.500.v20110511,"org.eclipse.core.variables",1355328485454
deactivated,workbench,org.eclipse.ui.workbench,3.7.0.I20110519-0100,"",1355328504394
activated,workbench,org.eclipse.ui.workbench,3.7.0.I20110519-0100,"",1355328505554
deactivated,workbench,org.eclipse.ui.workbench,3.7.0.I20110519-0100,"",1355328506044
activated,workbench,org.eclipse.ui.workbench,3.7.0.I20110519-0100,"",1355328509444
executed,command,org.eclipse.ui,3.7.0.I20110602-0100,"org.eclipse.ui.file.save",1355328511794
started,bundle,org.eclipse.compare,3.5.201.R37x_v20110817-0800,"org.eclipse.compare",1355328519894
deactivated,workbench,org.eclipse.ui.workbench,3.7.0.I20110519-0100,"",1355328520344
activated,workbench,org.eclipse.ui.workbench,3.7.0.I20110519-0100,"",1355328523104
executed,command,org.eclipse.jdt.ui,3.7.1.r371_v20110824-0800,"org.eclipse.jdt.ui.edit.text.java.copy.qualified.name",1355328523114
started,bundle,org.eclipse.debug.ui,3.7.101.v20110817_r371,"org.eclipse.debug.ui",1355328528044
started,bundle,org.eclipse.jdt.debug,3.7.1.v20110802_r371,"org.eclipse.jdt.debug",1355328529144
started,bundle,org.eclipse.jdt.debug.ui,3.6.1.v20110803_r371,"org.eclipse.jdt.debug.ui",1355328529404
executed,command,org.eclipse.jdt.debug.ui,3.6.1.v20110803_r371,"org.eclipse.jdt.debug.ui.localJavaShortcut.run",1355328530864
activated,view,org.eclipse.ui.console,3.5.100.v20110511,"org.eclipse.ui.console.ConsoleView",1355328537926
activated,editor,org.eclipse.jdt.ui,3.7.1.r371_v20110824-0800,"org.eclipse.jdt.ui.CompilationUnitEditor",1355328548616
executed,command,org.eclipse.ui,3.7.0.I20110602-0100,"org.eclipse.ui.file.save",1355328558266
executed,command,org.eclipse.jdt.debug.ui,3.6.1.v20110803_r371,"org.eclipse.jdt.debug.ui.localJavaShortcut.run",1355328566196
activated,view,org.eclipse.ui.console,3.5.100.v20110511,"org.eclipse.ui.console.ConsoleView",1355328571418
activated,editor,org.eclipse.jdt.ui,3.7.1.r371_v20110824-0800,"org.eclipse.jdt.ui.CompilationUnitEditor",1355328575928
executed,command,org.eclipse.ui,3.7.0.I20110602-0100,"org.eclipse.ui.edit.delete",1355328583518
executed,command,org.eclipse.ui,3.7.0.I20110602-0100,"org.eclipse.ui.edit.delete",1355328583738
executed,command,org.eclipse.ui,3.7.0.I20110602-0100,"org.eclipse.ui.edit.delete",1355328583938
executed,command,org.eclipse.ui,3.7.0.I20110602-0100,"org.eclipse.ui.edit.delete",1355328584148
executed,command,org.eclipse.ui,3.7.0.I20110602-0100,"org.eclipse.ui.edit.delete",1355328584378
executed,command,org.eclipse.ui,3.7.0.I20110602-0100,"org.eclipse.ui.file.save",1355328593238
executed,command,org.eclipse.jdt.debug.ui,3.6.1.v20110803_r371,"org.eclipse.jdt.debug.ui.localJavaShortcut.run",1355328599438
activated,view,org.eclipse.ui.console,3.5.100.v20110511,"org.eclipse.ui.console.ConsoleView",1355328608950
activated,editor,org.eclipse.jdt.ui,3.7.1.r371_v20110824-0800,"org.eclipse.jdt.ui.CompilationUnitEditor",1355328612330
executed,command,org.eclipse.ui,3.7.0.I20110602-0100,"org.eclipse.ui.file.save",1355328669350
executed,command,org.eclipse.jdt.debug.ui,3.6.1.v20110803_r371,"org.eclipse.jdt.debug.ui.localJavaShortcut.run",1355328674360
deactivated,workbench,org.eclipse.ui.workbench,3.7.0.I20110519-0100,"",1355328678532
activated,workbench,org.eclipse.ui.workbench,3.7.0.I20110519-0100,"",1355329073448
deactivated,workbench,org.eclipse.ui.workbench,3.7.0.I20110519-0100,"",1355329076158
activated,workbench,org.eclipse.ui.workbench,3.7.0.I20110519-0100,"",1355329081158
deactivated,workbench,org.eclipse.ui.workbench,3.7.0.I20110519-0100,"",1355329230412
deactivated,workbench,org.eclipse.ui.workbench,3.7.0.I20110519-0100,"",1355329252812
deactivated,workbench,org.eclipse.ui.workbench,3.7.0.I20110519-0100,"",1355329260234
activated,workbench,org.eclipse.ui.workbench,3.7.0.I20110519-0100,"",1355330426806
deactivated,workbench,org.eclipse.ui.workbench,3.7.0.I20110519-0100,"",1355330427663
activated,workbench,org.eclipse.ui.workbench,3.7.0.I20110519-0100,"",1355330471014
activated,view,org.eclipse.ui.navigator.resources,3.4.300.I20110421-1800,"org.eclipse.ui.navigator.ProjectExplorer",1355330486929
deactivated,workbench,org.eclipse.ui.workbench,3.7.0.I20110519-0100,"",1355330501564
started,bundle,org.eclipse.wst.common.project.facet.ui,1.4.200.v201103311536,"org.eclipse.wst.common.project.facet.ui",1355330516699
started,bundle,org.eclipse.wst.web.ui,1.1.400.v201004141630,"org.eclipse.wst.web.ui",1355330516704
started,bundle,org.eclipse.jst.common.project.facet.ui,1.4.200.v201008182133,"org.eclipse.jst.common.project.facet.ui",1355330517464
started,bundle,org.eclipse.jst.j2ee.ejb,1.1.503.v201108102200,"org.eclipse.jst.j2ee.ejb",1355330569954
started,bundle,org.eclipse.jst.j2ee.jca,1.1.500.v201108102200,"org.eclipse.jst.j2ee.jca",1355330569969
started,bundle,org.eclipse.jst.jee.ejb,1.0.301.v201007070821,"org.eclipse.jst.jee.ejb",1355330569999
started,bundle,org.eclipse.jst.jee.web,1.0.301.v201007070907,"org.eclipse.jst.jee.web",1355330570009
started,bundle,org.eclipse.xsd,2.7.0.v20110606-0949,"org.eclipse.xsd",1355330570814
activated,workbench,org.eclipse.ui.workbench,3.7.0.I20110519-0100,"",1355330572359
executed,command,org.eclipse.ui,3.7.0.I20110602-0100,"org.eclipse.ui.newWizard",1355330572379
started,bundle,org.eclipse.wst.common.uriresolver,1.1.401.v201004280700,"org.eclipse.wst.common.uriresolver",1355330573654
started,bundle,org.eclipse.wst.xsl.exslt.core,1.0.0.v201005240426,"org.eclipse.wst.xsl.exslt.core",1355330573689
started,bundle,org.eclipse.wst.internet.cache,1.0.400.v201004280700,"org.eclipse.wst.internet.cache",1355330574039
started,bundle,org.eclipse.pde.core,3.7.1.v20110822-2108,"org.eclipse.pde.core",1355330575264
started,bundle,org.eclipse.wst.html.core,1.1.501.v201109080146,"org.eclipse.wst.html.core",1355330587399
started,bundle,org.eclipse.wst.xml.ui,1.1.201.v201108151912,"org.eclipse.wst.xml.ui",1355330587469
started,bundle,org.eclipse.wst.css.core,1.1.500.v201104191926,"org.eclipse.wst.css.core",1355330587904
started,bundle,org.eclipse.wst.jsdt.web.ui,1.0.401.v201108152113,"org.eclipse.wst.jsdt.web.ui",1355330588114
started,bundle,org.eclipse.wst.css.ui,1.0.600.v201103022054,"org.eclipse.wst.css.ui",1355330588124
started,bundle,org.eclipse.wst.dtd.ui,1.0.600.v201103171359,"org.eclipse.wst.dtd.ui",1355330588214
started,bundle,org.eclipse.wst.jsdt.web.core,1.0.401.v201108152113,"org.eclipse.wst.jsdt.web.core",1355330588284
deactivated,workbench,org.eclipse.ui.workbench,3.7.0.I20110519-0100,"",1355330589384
activated,workbench,org.eclipse.ui.workbench,3.7.0.I20110519-0100,"",1355330592024
started,bundle,org.eclipse.jst.jsp.ui,1.1.601.v201108151912,"org.eclipse.jst.jsp.ui",1355330599744
deactivated,workbench,org.eclipse.ui.workbench,3.7.0.I20110519-0100,"",1355330601269
activated,workbench,org.eclipse.ui.workbench,3.7.0.I20110519-0100,"",1355330619369
started,bundle,org.eclipse.wst.jsdt.web.support.jsp,1.0.400.v201102241833,"org.eclipse.wst.jsdt.web.support.jsp",1355330619684
opened,editor,org.eclipse.jst.jsp.ui,1.1.601.v201108151912,"org.eclipse.jst.jsp.core.jspsource.source",1355330620301
activated,editor,org.eclipse.jst.jsp.ui,1.1.601.v201108151912,"org.eclipse.jst.jsp.core.jspsource.source",1355330620731
deactivated,workbench,org.eclipse.ui.workbench,3.7.0.I20110519-0100,"",1355330671246
activated,workbench,org.eclipse.ui.workbench,3.7.0.I20110519-0100,"",1355330677051
executed,command,org.eclipse.ui,3.7.0.I20110602-0100,"org.eclipse.ui.file.save",1355330679716
activated,editor,org.eclipse.jdt.ui,3.7.1.r371_v20110824-0800,"org.eclipse.jdt.ui.CompilationUnitEditor",1355330681521
closed,editor,org.eclipse.jst.jsp.ui,1.1.601.v201108151912,"org.eclipse.jst.jsp.core.jspsource.source",1355330681521
opened,view,org.eclipse.ui.ide,3.7.0.v20110809-1737,"org.eclipse.ui.views.AllMarkersView",1355330684841
activated,view,org.eclipse.ui.navigator.resources,3.4.300.I20110421-1800,"org.eclipse.ui.navigator.ProjectExplorer",1355330685231
closed,editor,org.eclipse.jdt.ui,3.7.1.r371_v20110824-0800,"org.eclipse.jdt.ui.CompilationUnitEditor",1355330685231
deactivated,workbench,org.eclipse.ui.workbench,3.7.0.I20110519-0100,"",1355330688201
activated,workbench,org.eclipse.ui.workbench,3.7.0.I20110519-0100,"",1355330705661
deactivated,workbench,org.eclipse.ui.workbench,3.7.0.I20110519-0100,"",1355330711281
started,bundle,org.eclipse.equinox.p2.garbagecollector,1.0.200.v20110510,"org.eclipse.equinox.p2.garbagecollector",1355330874292
activated,workbench,org.eclipse.ui.workbench,3.7.0.I20110519-0100,"",1355332248624
deactivated,workbench,org.eclipse.ui.workbench,3.7.0.I20110519-0100,"",1355332279434
activated,workbench,org.eclipse.ui.workbench,3.7.0.I20110519-0100,"",1355332280964
deactivated,workbench,org.eclipse.ui.workbench,3.7.0.I20110519-0100,"",1355332285389
activated,workbench,org.eclipse.ui.workbench,3.7.0.I20110519-0100,"",1355332368029
opened,editor,org.eclipse.jst.jsp.ui,1.1.601.v201108151912,"org.eclipse.jst.jsp.core.jspsource.source",1355332374249
activated,editor,org.eclipse.jst.jsp.ui,1.1.601.v201108151912,"org.eclipse.jst.jsp.core.jspsource.source",1355332374364
started,bundle,org.eclipse.jpt.jpa.ui,3.0.1.v201108080010,"org.eclipse.jpt.jpa.ui",1355332388244
started,bundle,org.eclipse.jst.jsf.ui,1.3.2.v201104251204,"org.eclipse.jst.jsf.ui",1355332389109
executed,command,,,"AUTOGEN:::org.eclipse.jst.jsp.core.jspsource.ruler.actions/org.eclipse.ui.texteditor.SelectRulerAction",1355332435274
executed,command,org.eclipse.ui,3.7.0.I20110602-0100,"org.eclipse.ui.edit.delete",1355332439674
executed,command,org.eclipse.ui,3.7.0.I20110602-0100,"org.eclipse.ui.file.save",1355332442594
started,bundle,org.eclipse.jst.jsf.facelet.ui,1.0.1.v201104032306,"org.eclipse.jst.jsf.facelet.ui",1355332450759
executed,command,org.eclipse.ui,3.7.0.I20110602-0100,"org.eclipse.ui.file.save",1355332458334
executed,command,,,"AUTOGEN:::org.eclipse.jst.jsp.core.jspsource.ruler.actions/org.eclipse.ui.texteditor.SelectRulerAction",1355332462099
activated,view,org.eclipse.ui.navigator.resources,3.4.300.I20110421-1800,"org.eclipse.ui.navigator.ProjectExplorer",1355332479359
deactivated,workbench,org.eclipse.ui.workbench,3.7.0.I20110519-0100,"",1355332490559
activated,workbench,org.eclipse.ui.workbench,3.7.0.I20110519-0100,"",1355332576308
activated,editor,org.eclipse.jst.jsp.ui,1.1.601.v201108151912,"org.eclipse.jst.jsp.core.jspsource.source",1355332577618
deactivated,workbench,org.eclipse.ui.workbench,3.7.0.I20110519-0100,"",1355332586189
activated,workbench,org.eclipse.ui.workbench,3.7.0.I20110519-0100,"",1355332586369
activated,view,org.eclipse.ui.navigator.resources,3.4.300.I20110421-1800,"org.eclipse.ui.navigator.ProjectExplorer",1355332589739
deactivated,workbench,org.eclipse.ui.workbench,3.7.0.I20110519-0100,"",1355332596209
activated,workbench,org.eclipse.ui.workbench,3.7.0.I20110519-0100,"",1355332600569
executed,command,org.eclipse.ui,3.7.0.I20110602-0100,"org.eclipse.ui.file.properties",1355332600589
deactivated,workbench,org.eclipse.ui.workbench,3.7.0.I20110519-0100,"",1355332608989
activated,workbench,org.eclipse.ui.workbench,3.7.0.I20110519-0100,"",1355332612289
executed,command,org.eclipse.ui,3.7.0.I20110602-0100,"org.eclipse.ui.file.properties",1355332612319
started,bundle,org.eclipse.wst.xsl.debug.ui,1.0.200.v201101281837,"org.eclipse.wst.xsl.debug.ui",1355332647309
deactivated,workbench,org.eclipse.ui.workbench,3.7.0.I20110519-0100,"",1355332654739
activated,workbench,org.eclipse.ui.workbench,3.7.0.I20110519-0100,"",1355332662759
deactivated,workbench,org.eclipse.ui.workbench,3.7.0.I20110519-0100,"",1355332664239
deactivated,workbench,org.eclipse.ui.workbench,3.7.0.I20110519-0100,"",1355332679639
deactivated,workbench,org.eclipse.ui.workbench,3.7.0.I20110519-0100,"",1355332686959
activated,workbench,org.eclipse.ui.workbench,3.7.0.I20110519-0100,"",1355333396937
deactivated,workbench,org.eclipse.ui.workbench,3.7.0.I20110519-0100,"",1355333397785
activated,workbench,org.eclipse.ui.workbench,3.7.0.I20110519-0100,"",1355333402398
deactivated,workbench,org.eclipse.ui.workbench,3.7.0.I20110519-0100,"",1355333405687
activated,workbench,org.eclipse.ui.workbench,3.7.0.I20110519-0100,"",1355333407743
deactivated,workbench,org.eclipse.ui.workbench,3.7.0.I20110519-0100,"",1355333407753
activated,workbench,org.eclipse.ui.workbench,3.7.0.I20110519-0100,"",1355334135412
deactivated,workbench,org.eclipse.ui.workbench,3.7.0.I20110519-0100,"",1355334138019
deactivated,workbench,org.eclipse.ui.workbench,3.7.0.I20110519-0100,"",1355334147971
deactivated,workbench,org.eclipse.ui.workbench,3.7.0.I20110519-0100,"",1355335116029
deactivated,workbench,org.eclipse.ui.workbench,3.7.0.I20110519-0100,"",1355391072309
deactivated,workbench,org.eclipse.ui.workbench,3.7.0.I20110519-0100,"",1355391089376
deactivated,workbench,org.eclipse.ui.workbench,3.7.0.I20110519-0100,"",1355391390625
deactivated,workbench,org.eclipse.ui.workbench,3.7.0.I20110519-0100,"",1355391426303
deactivated,workbench,org.eclipse.ui.workbench,3.7.0.I20110519-0100,"",1355391496160
deactivated,workbench,org.eclipse.ui.workbench,3.7.0.I20110519-0100,"",1355392059971
deactivated,workbench,org.eclipse.ui.workbench,3.7.0.I20110519-0100,"",1355392083153
activated,workbench,org.eclipse.ui.workbench,3.7.0.I20110519-0100,"",1355392992636
started,bundle,org.eclipse.jst.j2ee.jca.ui,1.1.400.v201004150700,"org.eclipse.jst.j2ee.jca.ui",1355393000566
deactivated,workbench,org.eclipse.ui.workbench,3.7.0.I20110519-0100,"",1355393000876
activated,workbench,org.eclipse.ui.workbench,3.7.0.I20110519-0100,"",1355393003286
deactivated,workbench,org.eclipse.ui.workbench,3.7.0.I20110519-0100,"",1355393019826
activated,workbench,org.eclipse.ui.workbench,3.7.0.I20110519-0100,"",1355393057196
activated,editor,org.eclipse.jst.jsp.ui,1.1.601.v201108151912,"org.eclipse.jst.jsp.core.jspsource.source",1355393060450
activated,view,org.eclipse.ui.navigator.resources,3.4.300.I20110421-1800,"org.eclipse.ui.navigator.ProjectExplorer",1355393060550
closed,editor,org.eclipse.jst.jsp.ui,1.1.601.v201108151912,"org.eclipse.jst.jsp.core.jspsource.source",1355393060550
started,bundle,org.eclipse.wst.xsl.ui,1.1.200.v201103082057,"org.eclipse.wst.xsl.ui",1355393066870
opened,editor,org.eclipse.wst.xml.ui,1.1.201.v201108151912,"org.eclipse.wst.xml.ui.internal.tabletree.XMLMultiPageEditorPart",1355393067030
activated,editor,org.eclipse.wst.xml.ui,1.1.201.v201108151912,"org.eclipse.wst.xml.ui.internal.tabletree.XMLMultiPageEditorPart",1355393067300
activated,view,org.eclipse.ui.navigator.resources,3.4.300.I20110421-1800,"org.eclipse.ui.navigator.ProjectExplorer",1355393070604
deactivated,workbench,org.eclipse.ui.workbench,3.7.0.I20110519-0100,"",1355393074374
activated,workbench,org.eclipse.ui.workbench,3.7.0.I20110519-0100,"",1355393082368
opened,editor,org.eclipse.wst.html.ui,1.0.601.v201108152113,"org.eclipse.wst.html.core.htmlsource.source",1355393082968
activated,editor,org.eclipse.wst.html.ui,1.0.601.v201108152113,"org.eclipse.wst.html.core.htmlsource.source",1355393083148
executed,command,org.eclipse.ui.workbench.texteditor,3.7.0.v20110505-0800,"org.eclipse.ui.edit.text.goto.lineEnd",1355393095018
executed,command,org.eclipse.ui,3.7.0.I20110602-0100,"org.eclipse.ui.file.save",1355393101438
activated,view,org.eclipse.ui.navigator.resources,3.4.300.I20110421-1800,"org.eclipse.ui.navigator.ProjectExplorer",1355393112640
started,bundle,org.eclipse.wst.ws.service.policy.ui,1.0.300.v201108240515,"org.eclipse.wst.ws.service.policy.ui",1355393117940
started,bundle,org.eclipse.wst.ws.service.policy,1.0.303.v201009221810,"org.eclipse.wst.ws.service.policy",1355393117950
started,bundle,org.eclipse.wst.command.env,1.0.409.v201004211805,"org.eclipse.wst.command.env",1355393118130
started,bundle,org.eclipse.wst.ws,1.1.203.v201004211805,"org.eclipse.wst.ws",1355393118130
started,bundle,org.eclipse.wst.common.environment,1.0.400.v200912181832,"org.eclipse.wst.common.environment",1355393122810
deactivated,workbench,org.eclipse.ui.workbench,3.7.0.I20110519-0100,"",1355393123090
activated,workbench,org.eclipse.ui.workbench,3.7.0.I20110519-0100,"",1355393169420
deactivated,workbench,org.eclipse.ui.workbench,3.7.0.I20110519-0100,"",1355393175050
activated,workbench,org.eclipse.ui.workbench,3.7.0.I20110519-0100,"",1355393217904
deactivated,workbench,org.eclipse.ui.workbench,3.7.0.I20110519-0100,"",1355393220014
activated,workbench,org.eclipse.ui.workbench,3.7.0.I20110519-0100,"",1355397372340
deactivated,workbench,org.eclipse.ui.workbench,3.7.0.I20110519-0100,"",1355397373680
