2233|a.k.shukla|g.m.|sales|12/12/52|6000
9876|jaisharma|director|production|12/03/50|7000
5678|sumitchakrobarty|writer|marketing|19/04/43|6000
2365|barunsengupta|director|personnel|11/05/47|7800
5423|n.k.gupta|chairman|admin|30/08/56|5400
1006|chanchalsinghvi|director|sales|03/09/38|6700
6213|karunaganguly|g.m.|accounts|05/06/62|6300
1265|s.n.dasgupta|manager|sales|12/09/63|5600
4290|jayantChoudhury|executive|production|07/09/50|6000
2476|anilaggarwal|manager|sales|01/05/59|5000
6521|lalitchowdury|director|marketing|26/09/45|8200
3212|shyamsaksena|writer|accounts|12/12/55|6000
3564|sudhirAgarwal|executive|personnel|06/07/47|7500
2345|j.b.saxena|g.m.|marketing|12/03/45|8000
0110|v.k.agrawal|g.m.|marketing|31/12/40|9000
